Assignment2/TRACE.vcd
$var reg 	32 !	CPU.M_datain  $end
$enddefinitions $end 
$enddefinitions $end 
#3
b00000000000000000000000011111010 !
#4
b00000000000000000000000011111011 !
#5
b00000000000000000000000000000001 !
#15
b00000000000000000000000000000000 !
#16
b00000000000000000000000001000000 !
#24
b00000000000000000000000000000000 !
#25
b00000000000000000000000000000010 !
#34
b00000000000000000000000011111100 !
#35
b00000000000000000000000000000010 !
#36
b11111111111111111111111100001000 !
#38
b00000000000000000000000000000000 !
#40
b00000000000000000000000000000010 !
#49
b00000000000000000000000000000000 !
#50
b00000000000000000000000000100000 !
#58
b00000000000000000000000000000000 !
#59
b00000000000000000000000000000011 !
#68
b00000000000000000000000011111101 !
#69
b00000000000000000000000000000011 !
#70
b11111111111111111111111100001001 !
#72
b00000000000000000000000000000000 !
#74
b00000000000000000000000000000011 !
#83
b00000000000000000000000000000000 !
#93
b00000000000000000000000000000011 !
#102
b00000000000000000000000011111110 !
#103
b00000000000000000000000000000100 !
#104
b11111111111111111111111100001010 !
#106
b00000000000000000000000000000000 !
#108
b00000000000000000000000000000100 !
#117
b00000000000000000000000000000000 !
#127
b00000000000000000000000000000011 !
#136
b00000000000000000000000011111111 !
#137
b00000000000000000000000000000101 !
#138
b11111111111111111111111100001011 !
#140
b00000000000000000000000000000000 !
#142
b00000000000000000000000000000101 !
#151
b00000000000000000000000000000000 !
#152
b00000000000000000000000000000001 !
#160
b00000000000000000000000000000000 !
#161
b00000000000000000000000000000011 !
#170
b00000000000000000000000100000000 !
#171
b00000000000000000000000000000110 !
#172
b11111111111111111111111100001100 !
#174
b00000000000000000000000000000000 !
#176
b00000000000000000000000000000110 !
#185
b00000000000000000000000000000000 !
#186
b00000000000000000000000000000100 !
#194
b00000000000000000000000000000000 !
#195
b00000000000000000000000000000011 !
#204
b00000000000000000000000100000001 !
#205
b00000000000000000000000000000111 !
#206
b11111111111111111111111100001101 !
#208
b00000000000000000000000000000000 !
#210
b00000000000000000000000000000111 !
#219
b00000000000000000000000000000000 !
#220
b00000000000000000000000000001001 !
#228
b00000000000000000000000000000000 !
#229
b00000000000000000000000000000011 !
#238
b00000000000000000000000100000010 !
#239
b00000000000000000000000000001000 !
#240
b11111111111111111111111100001110 !
#242
b00000000000000000000000000000000 !
#244
b00000000000000000000000000001000 !
#253
b00000000000000000000000000000000 !
#254
b00000000000000000000000000010000 !
#262
b00000000000000000000000000000000 !
#263
b00000000000000000000000000000011 !
#272
b00000000000000000000000100000011 !
#273
b00000000000000000000000000001001 !
#274
b11111111111111111111111100001111 !
#276
b00000000000000000000000000000000 !
#278
b00000000000000000000000000001001 !
#287
b00000000000000000000000000000000 !
#288
b00000000000000000000000000011001 !
#296
b00000000000000000000000000000000 !
#297
b00000000000000000000000000000100 !
#306
b00000000000000000000000100000100 !
#307
b00000000000000000000000000001010 !
#308
b11111111111111111111111100010000 !
#310
b00000000000000000000000000000000 !
#312
b00000000000000000000000000001010 !
#321
b00000000000000000000000000000000 !
#322
b00000000000000000000000000100100 !
#330
b00000000000000000000000000000000 !
#331
b00000000000000000000000000000101 !
#340
b00000000000000000000000100000101 !
#341
b00000000000000000000000000001011 !
#342
b11111111111111111111111100010001 !
#344
b00000000000000000000000000000000 !
#346
b00000000000000000000000000001011 !
#355
b00000000000000000000000000000000 !
#356
b00000000000000000000000000110001 !
#364
b00000000000000000000000000000000 !
#365
b00000000000000000000000000000111 !
#374
b00000000000000000000000100000110 !
#375
b00000000000000000000000000001100 !
#376
b11111111111111111111111100010010 !
#378
b00000000000000000000000000000000 !
#380
b00000000000000000000000000001100 !
#389
b00000000000000000000000000000000 !
#390
b00000000000000000000000000110001 !
#398
b00000000000000000000000000000000 !
#399
b00000000000000000000000000001000 !
#408
b00000000000000000000000100000111 !
#409
b00000000000000000000000000001101 !
#410
b11111111111111111111111100010011 !
#412
b00000000000000000000000000000000 !
#414
b00000000000000000000000000001101 !
#423
b00000000000000000000000000000000 !
#424
b00000000000000000000000000110001 !
#432
b00000000000000000000000000000000 !
#433
b00000000000000000000000000001010 !
#442
b00000000000000000000000100001000 !
#443
b00000000000000000000000000001110 !
#444
b11111111111111111111111100010100 !
#446
b00000000000000000000000000000000 !
#448
b00000000000000000000000000001110 !
#457
b00000000000000000000000000000000 !
#458
b00000000000000000000000000110001 !
#466
b00000000000000000000000000000000 !
#467
b00000000000000000000000000001011 !
#476
b00000000000000000000000100001001 !
#477
b00000000000000000000000000001111 !
#478
b11111111111111111111111100010101 !
#480
b00000000000000000000000000000000 !
#482
b00000000000000000000000000001111 !
#491
b00000000000000000000000000000000 !
#492
b00000000000000000000000000110001 !
#500
b00000000000000000000000000000000 !
#501
b00000000000000000000000000001101 !
#510
b00000000000000000000000100001010 !
#511
b00000000000000000000000000010000 !
#512
b11111111111111111111111100010110 !
#514
b00000000000000000000000000000000 !
#516
b00000000000000000000000000010000 !
#525
b00000000000000000000000000000000 !
#526
b00000000000000000000000000110001 !
#534
b00000000000000000000000000000000 !
#535
b00000000000000000000000000001111 !
#544
b00000000000000000000000100001011 !
#545
b00000000000000000000000000010001 !
#546
b11111111111111111111111100010111 !
#548
b00000000000000000000000000000000 !
#550
b00000000000000000000000000010001 !
#559
b00000000000000000000000000000000 !
#560
b00000000000000000000000000011001 !
#568
b00000000000000000000000000000000 !
#569
b00000000000000000000000000001111 !
#578
b00000000000000000000000100001100 !
#579
b00000000000000000000000000010010 !
#580
b11111111111111111111111100011000 !
#582
b00000000000000000000000000000000 !
#584
b00000000000000000000000000010010 !
#593
b00000000000000000000000000000000 !
#594
b00000000000000000000000000000001 !
#602
b00000000000000000000000000000000 !
#603
b00000000000000000000000000001111 !
#612
b00000000000000000000000100001101 !
#613
b00000000000000000000000000010011 !
#614
b11111111111111111111111100011001 !
#616
b00000000000000000000000000000000 !
#618
b00000000000000000000000000010011 !
#627
b00000000000000000000000000000000 !
#628
b00000000000000000000000000011001 !
#636
b00000000000000000000000000000000 !
#637
b00000000000000000000000000010000 !
#646
b00000000000000000000000100001110 !
#647
b00000000000000000000000000010100 !
#648
b11111111111111111111111100011010 !
#650
b00000000000000000000000000000000 !
#652
b00000000000000000000000000010100 !
#661
b00000000000000000000000000000000 !
#662
b00000000000000000000000010010000 !
#670
b00000000000000000000000000000000 !
#671
b00000000000000000000000000010101 !
#680
b00000000000000000000000100001111 !
#681
b00000000000000000000000000010101 !
#682
b11111111111111111111111100011011 !
#684
b00000000000000000000000000000000 !
#686
b00000000000000000000000000010101 !
#695
b00000000000000000000000000000000 !
#696
b00000000000000000000000110010000 !
#704
b00000000000000000000000000000000 !
#705
b00000000000000000000000000100001 !
#714
b00000000000000000000000100010000 !
#715
b00000000000000000000000000010110 !
#716
b11111111111111111111111100011100 !
#718
b00000000000000000000000000000000 !
#720
b00000000000000000000000000010110 !
#729
b00000000000000000000000000000000 !
#730
b00000000000000000000001100010000 !
#738
b00000000000000000000000000000000 !
#739
b00000000000000000000000000111010 !
#748
b00000000000000000000000100010001 !
#749
b00000000000000000000000000010111 !
#750
b11111111111111111111111100011101 !
#752
b00000000000000000000000000000000 !
#754
b00000000000000000000000000010111 !
#763
b00000000000000000000000000000000 !
#764
b00000000000000000000010001000001 !
#772
b00000000000000000000000000000000 !
#773
b00000000000000000000000001011100 !
#782
b00000000000000000000000100010010 !
#783
b00000000000000000000000000011000 !
#784
b11111111111111111111111100011110 !
#786
b00000000000000000000000000000000 !
#788
b00000000000000000000000000011000 !
#797
b00000000000000000000000000000000 !
#798
b00000000000000000000010001000001 !
#806
b00000000000000000000000000000000 !
#807
b00000000000000000000000001111110 !
#816
b00000000000000000000000100010011 !
#817
b00000000000000000000000000011001 !
#818
b11111111111111111111111100011111 !
#820
b00000000000000000000000000000000 !
#822
b00000000000000000000000000011001 !
#831
b00000000000000000000000000000000 !
#832
b00000000000000000000001101001001 !
#840
b00000000000000000000000000000000 !
#841
b00000000000000000000000010011000 !
#850
b00000000000000000000000100010100 !
#851
b00000000000000000000000000011010 !
#852
b11111111111111111111111100100000 !
#854
b00000000000000000000000000000000 !
#856
b00000000000000000000000000011010 !
#865
b00000000000000000000000000000000 !
#866
b00000000000000000000000111100100 !
#874
b00000000000000000000000000000000 !
#875
b00000000000000000000000010100111 !
#884
b00000000000000000000000100010101 !
#885
b00000000000000000000000000011011 !
#886
b11111111111111111111111100100001 !
#888
b00000000000000000000000000000000 !
#890
b00000000000000000000000000011011 !
#899
b00000000000000000000000000000000 !
#900
b00000000000000000000000011000100 !
#908
b00000000000000000000000000000000 !
#909
b00000000000000000000000010101101 !
#918
b00000000000000000000000100010110 !
#919
b00000000000000000000000000011100 !
#920
b11111111111111111111111100100010 !
#922
b00000000000000000000000000000000 !
#924
b00000000000000000000000000011100 !
#933
b00000000000000000000000000000000 !
#934
b00000000000000000000000000011001 !
#942
b00000000000000000000000000000000 !
#943
b00000000000000000000000010101110 !
#952
b00000000000000000000000100010111 !
#953
b00000000000000000000000000011101 !
#954
b11111111111111111111111100100011 !
#956
b00000000000000000000000000000000 !
#958
b00000000000000000000000000011101 !
#967
b00000000000000000000000000000000 !
#968
b00000000000000000000000000000001 !
#976
b00000000000000000000000000000000 !
#977
b00000000000000000000000010101110 !
#986
b00000000000000000000000100011000 !
#987
b00000000000000000000000000011110 !
#988
b11111111111111111111111100100100 !
#990
b00000000000000000000000000000000 !
#992
b00000000000000000000000000011110 !
#1001
b00000000000000000000000000000000 !
#1002
b00000000000000000000000000011001 !
#1010
b00000000000000000000000000000000 !
#1011
b00000000000000000000000010101111 !
#1020
b00000000000000000000000100011001 !
#1021
b00000000000000000000000000011111 !
#1022
b11111111111111111111111100100101 !
#1024
b00000000000000000000000000000000 !
#1026
b00000000000000000000000000011111 !
#1035
b00000000000000000000000000000000 !
#1036
b00000000000000000000000001000000 !
#1044
b00000000000000000000000000000000 !
#1045
b00000000000000000000000010110001 !
#1054
b00000000000000000000000100011010 !
#1055
b00000000000000000000000000100000 !
#1056
b11111111111111111111111100100110 !
#1058
b00000000000000000000000000000000 !
#1060
b00000000000000000000000000100000 !
#1069
b00000000000000000000000000000000 !
#1070
b00000000000000000000000001010001 !
#1078
b00000000000000000000000000000000 !
#1079
b00000000000000000000000010110011 !
#1088
b00000000000000000000000100011011 !
#1089
b00000000000000000000000000100001 !
#1090
b11111111111111111111111100100111 !
#1092
b00000000000000000000000000000000 !
#1094
b00000000000000000000000000100001 !
#1103
b00000000000000000000000000000000 !
#1104
b00000000000000000000000001010001 !
#1112
b00000000000000000000000000000000 !
#1113
b00000000000000000000000010110100 !
#1122
b00000000000000000000000100011100 !
#1123
b00000000000000000000000000100010 !
#1124
b11111111111111111111111100101000 !
#1126
b00000000000000000000000000000000 !
#1128
b00000000000000000000000000100010 !
#1137
b00000000000000000000000000000000 !
#1138
b00000000000000000000000001100100 !
#1146
b00000000000000000000000000000000 !
#1147
b00000000000000000000000010110110 !
#1156
b00000000000000000000000100011101 !
#1157
b00000000000000000000000000100011 !
#1158
b11111111111111111111111100101001 !
#1160
b00000000000000000000000000000000 !
#1162
b00000000000000000000000000100011 !
#1171
b00000000000000000000000000000000 !
#1172
b00000000000000000000000001100100 !
#1180
b00000000000000000000000000000000 !
#1181
b00000000000000000000000010111001 !
#1190
b00000000000000000000000100011110 !
#1191
b00000000000000000000000000100100 !
#1192
b11111111111111111111111100101010 !
#1194
b00000000000000000000000000000000 !
#1196
b00000000000000000000000000100100 !
#1205
b00000000000000000000000000000000 !
#1206
b00000000000000000000000001100100 !
#1214
b00000000000000000000000000000000 !
#1215
b00000000000000000000000010111100 !
#1224
b00000000000000000000000100011111 !
#1225
b00000000000000000000000000100101 !
#1226
b11111111111111111111111100101011 !
#1228
b00000000000000000000000000000000 !
#1230
b00000000000000000000000000100101 !
#1239
b00000000000000000000000000000000 !
#1240
b00000000000000000000000001100100 !
#1248
b00000000000000000000000000000000 !
#1249
b00000000000000000000000010111111 !
#1258
b00000000000000000000000100100000 !
#1259
b00000000000000000000000000100110 !
#1260
b11111111111111111111111100101100 !
#1262
b00000000000000000000000000000000 !
#1264
b00000000000000000000000000100110 !
#1273
b00000000000000000000000000000000 !
#1274
b00000000000000000000000001010001 !
#1282
b00000000000000000000000000000000 !
#1283
b00000000000000000000000011000010 !
#1292
b00000000000000000000000100100001 !
#1293
b00000000000000000000000000100111 !
#1294
b11111111111111111111111100101101 !
#1296
b00000000000000000000000000000000 !
#1298
b00000000000000000000000000100111 !
#1307
b00000000000000000000000000000000 !
#1308
b00000000000000000000000001000000 !
#1316
b00000000000000000000000000000000 !
#1317
b00000000000000000000000011000011 !
#1326
b00000000000000000000000100100010 !
#1327
b00000000000000000000000000101000 !
#1328
b11111111111111111111111100101110 !
#1330
b00000000000000000000000000000000 !
#1332
b00000000000000000000000000101000 !
#1341
b00000000000000000000000000000000 !
#1342
b00000000000000000000000000100100 !
#1350
b00000000000000000000000000000000 !
#1351
b00000000000000000000000011000100 !
#1360
b00000000000000000000000100100011 !
#1361
b00000000000000000000000000101001 !
#1362
b11111111111111111111111100101111 !
#1364
b00000000000000000000000000000000 !
#1366
b00000000000000000000000000101001 !
#1375
b00000000000000000000000000000000 !
#1376
b00000000000000000000000000011001 !
#1384
b00000000000000000000000000000000 !
#1385
b00000000000000000000000011000100 !
#1394
b00000000000000000000000100100100 !
#1395
b00000000000000000000000000101010 !
#1396
b11111111111111111111111100110000 !
#1398
b00000000000000000000000000000000 !
#1400
b00000000000000000000000000101010 !
#1409
b00000000000000000000000000000000 !
#1410
b00000000000000000000000000010000 !
#1418
b00000000000000000000000000000000 !
#1419
b00000000000000000000000011000011 !
#1428
b00000000000000000000000100100101 !
#1429
b00000000000000000000000000101011 !
#1430
b11111111111111111111111100110001 !
#1432
b00000000000000000000000000000000 !
#1434
b00000000000000000000000000101011 !
#1443
b00000000000000000000000000000000 !
#1444
b00000000000000000000000000001001 !
#1452
b00000000000000000000000000000000 !
#1453
b00000000000000000000000011000010 !
#1462
b00000000000000000000000100100110 !
#1463
b00000000000000000000000000101100 !
#1464
b11111111111111111111111100110010 !
#1466
b00000000000000000000000000000000 !
#1468
b00000000000000000000000000101100 !
#1477
b00000000000000000000000000000000 !
#1478
b00000000000000000000000000001001 !
#1486
b00000000000000000000000000000000 !
#1487
b00000000000000000000000011000001 !
#1496
b00000000000000000000000100100111 !
#1497
b00000000000000000000000000101101 !
#1498
b11111111111111111111111100110011 !
#1500
b00000000000000000000000000000000 !
#1502
b00000000000000000000000000101101 !
#1511
b00000000000000000000000000000000 !
#1512
b00000000000000000000000000000100 !
#1520
b00000000000000000000000000000000 !
#1521
b00000000000000000000000011000000 !
#1530
b00000000000000000000000100101000 !
#1531
b00000000000000000000000000101110 !
#1532
b11111111111111111111111100110100 !
#1534
b00000000000000000000000000000000 !
#1536
b00000000000000000000000000101110 !
#1545
b00000000000000000000000000000000 !
#1546
b00000000000000000000000000000100 !
#1554
b00000000000000000000000000000000 !
#1555
b00000000000000000000000010111110 !
#1564
b00000000000000000000000100101001 !
#1565
b00000000000000000000000000101111 !
#1566
b11111111111111111111111100110101 !
#1568
b00000000000000000000000000000000 !
#1570
b00000000000000000000000000101111 !
#1579
b00000000000000000000000000000000 !
#1580
b00000000000000000000000000000100 !
#1588
b00000000000000000000000000000000 !
#1589
b00000000000000000000000010111101 !
#1598
b00000000000000000000000100101010 !
#1599
b00000000000000000000000000110000 !
#1600
b11111111111111111111111100110110 !
#1602
b00000000000000000000000000000000 !
#1604
b00000000000000000000000000110000 !
#1613
b00000000000000000000000000000000 !
#1614
b00000000000000000000000000000100 !
#1622
b00000000000000000000000000000000 !
#1623
b00000000000000000000000010111011 !
#1632
b00000000000000000000000100101011 !
#1633
b00000000000000000000000000110001 !
#1634
b11111111111111111111111100110111 !
#1636
b00000000000000000000000000000000 !
#1638
b00000000000000000000000000110001 !
#1647
b00000000000000000000000000000000 !
#1648
b00000000000000000000000000000100 !
#1656
b00000000000000000000000000000000 !
#1657
b00000000000000000000000010111011 !
#1666
b00000000000000000000000100101100 !
#1667
b00000000000000000000000000110010 !
#1668
b11111111111111111111111100111000 !
#1670
b00000000000000000000000000000000 !
#1672
b00000000000000000000000000110010 !
#1681
b00000000000000000000000000000000 !
#1682
b00000000000000000000000000000001 !
#1690
b00000000000000000000000000000000 !
#1691
b00000000000000000000000010111011 !
#1700
b00000000000000000000000100101101 !
#1701
b00000000000000000000000000110011 !
#1702
b11111111111111111111111100111001 !
#1704
b00000000000000000000000000000000 !
#1706
b00000000000000000000000000110011 !
#1715
b00000000000000000000000000000000 !
#1725
b00000000000000000000000010111010 !
#1734
b00000000000000000000000100101110 !
#1735
b00000000000000000000000000110100 !
#1736
b11111111111111111111111100111010 !
#1738
b00000000000000000000000000000000 !
#1740
b00000000000000000000000000110100 !
#1749
b00000000000000000000000000000000 !
#1759
b00000000000000000000000010110101 !
#1768
b00000000000000000000000100101111 !
#1769
b00000000000000000000000000110101 !
#1770
b11111111111111111111111100111011 !
#1772
b00000000000000000000000000000000 !
#1774
b00000000000000000000000000110101 !
#1783
b00000000000000000000000000000000 !
#1784
b00000000000000000000000000000001 !
#1792
b00000000000000000000000000000000 !
#1793
b00000000000000000000000010101001 !
#1802
b00000000000000000000000100110000 !
#1803
b00000000000000000000000000110110 !
#1804
b11111111111111111111111100111100 !
#1806
b00000000000000000000000000000000 !
#1808
b00000000000000000000000000110110 !
#1817
b00000000000000000000000000000000 !
#1818
b00000000000000000000000000000001 !
#1826
b00000000000000000000000000000000 !
#1827
b00000000000000000000000010010000 !
#1836
b00000000000000000000000100110001 !
#1837
b00000000000000000000000000110111 !
#1838
b11111111111111111111111100111101 !
#1840
b00000000000000000000000000000000 !
#1842
b00000000000000000000000000110111 !
#1851
b00000000000000000000000000000000 !
#1852
b00000000000000000000000000000100 !
#1860
b00000000000000000000000000000000 !
#1861
b00000000000000000000000001101111 !
#1870
b00000000000000000000000100110010 !
#1871
b00000000000000000000000000111000 !
#1872
b11111111111111111111111100111110 !
#1874
b00000000000000000000000000000000 !
#1876
b00000000000000000000000000111000 !
#1885
b00000000000000000000000000000000 !
#1886
b00000000000000000000000000000100 !
#1894
b00000000000000000000000000000000 !
#1895
b00000000000000000000000001001101 !
#1904
b00000000000000000000000100110011 !
#1905
b00000000000000000000000000111001 !
#1906
b11111111111111111111111100111111 !
#1908
b00000000000000000000000000000000 !
#1910
b00000000000000000000000000111001 !
#1919
b00000000000000000000000000000000 !
#1920
b00000000000000000000000000000001 !
#1928
b00000000000000000000000000000000 !
#1929
b00000000000000000000000000110010 !
#1938
b00000000000000000000000100110100 !
#1939
b00000000000000000000000000111010 !
#1940
b11111111111111111111111101000000 !
#1942
b00000000000000000000000000000000 !
#1944
b00000000000000000000000000111010 !
#1953
b00000000000000000000000000000000 !
#1954
b00000000000000000000000000000001 !
#1962
b00000000000000000000000000000000 !
#1963
b00000000000000000000000000100011 !
#1972
b00000000000000000000000100110101 !
#1973
b00000000000000000000000000111011 !
#1974
b11111111111111111111111101000001 !
#1976
b00000000000000000000000000000000 !
#1978
b00000000000000000000000000111011 !
#1987
b00000000000000000000000000000000 !
#1988
b00000000000000000000000000000001 !
#1996
b00000000000000000000000000000000 !
#1997
b00000000000000000000000000011101 !
#2006
b00000000000000000000000100110110 !
#2007
b00000000000000000000000000111100 !
#2008
b11111111111111111111111101000010 !
#2010
b00000000000000000000000000000000 !
#2012
b00000000000000000000000000111100 !
#2021
b00000000000000000000000000000000 !
#2022
b00000000000000000000000000000001 !
#2030
b00000000000000000000000000000000 !
#2031
b00000000000000000000000000011100 !
#2040
b00000000000000000000000100110111 !
#2041
b00000000000000000000000000111101 !
#2042
b11111111111111111111111101000011 !
#2044
b00000000000000000000000000000000 !
#2046
b00000000000000000000000000111101 !
#2055
b00000000000000000000000000000000 !
#2065
b00000000000000000000000000011100 !
#2074
b00000000000000000000000100111000 !
#2075
b00000000000000000000000000111110 !
#2076
b11111111111111111111111101000100 !
#2078
b00000000000000000000000000000000 !
#2080
b00000000000000000000000000111110 !
#2089
b00000000000000000000000000000000 !
#2099
b00000000000000000000000000011100 !
#2108
b00000000000000000000000100111001 !
#2109
b00000000000000000000000000111111 !
#2110
b11111111111111111111111101000101 !
#2112
b00000000000000000000000000000000 !
#2114
b00000000000000000000000000111111 !
#2123
b00000000000000000000000000000000 !
#2133
b00000000000000000000000000011010 !
#2142
b00000000000000000000000100111010 !
#2143
b00000000000000000000000001000000 !
#2144
b11111111111111111111111101000110 !
#2146
b00000000000000000000000000000000 !
#2148
b00000000000000000000000001000000 !
#2157
b00000000000000000000000000000000 !
#2167
b00000000000000000000000000010111 !
#2176
b00000000000000000000000100111011 !
#2177
b00000000000000000000000001000001 !
#2178
b11111111111111111111111101000111 !
#2180
b00000000000000000000000000000000 !
#2182
b00000000000000000000000001000001 !
#2191
b00000000000000000000000000000000 !
#2201
b00000000000000000000000000010101 !
#2210
b00000000000000000000000100111100 !
#2211
b00000000000000000000000001000010 !
#2212
b11111111111111111111111101001000 !
#2214
b00000000000000000000000000000000 !
#2216
b00000000000000000000000001000010 !
#2225
b00000000000000000000000000000000 !
#2226
b00000000000000000000000000000001 !
#2234
b00000000000000000000000000000000 !
#2235
b00000000000000000000000000010010 !
#2244
b00000000000000000000000100111101 !
#2245
b00000000000000000000000001000011 !
#2246
b11111111111111111111111101001001 !
#2248
b00000000000000000000000000000000 !
#2250
b00000000000000000000000001000011 !
#2259
b00000000000000000000000000000000 !
#2260
b00000000000000000000000000000001 !
#2268
b00000000000000000000000000000000 !
#2269
b00000000000000000000000000001110 !
#2278
b00000000000000000000000100111110 !
#2279
b00000000000000000000000001000100 !
#2280
b11111111111111111111111101001010 !
#2282
b00000000000000000000000000000000 !
#2284
b00000000000000000000000001000100 !
#2293
b00000000000000000000000000000000 !
#2294
b00000000000000000000000000000001 !
#2302
b00000000000000000000000000000000 !
#2303
b00000000000000000000000000001011 !
#2312
b00000000000000000000000100111111 !
#2313
b00000000000000000000000001000101 !
#2314
b11111111111111111111111101001011 !
#2316
b00000000000000000000000000000000 !
#2318
b00000000000000000000000001000101 !
#2327
b00000000000000000000000000000000 !
#2328
b00000000000000000000000000000001 !
#2336
b00000000000000000000000000000000 !
#2337
b00000000000000000000000000001000 !
#2346
b00000000000000000000000101000000 !
#2347
b00000000000000000000000001000110 !
#2348
b11111111111111111111111101001100 !
#2350
b00000000000000000000000000000000 !
#2352
b00000000000000000000000001000110 !
#2361
b00000000000000000000000000000000 !
#2362
b00000000000000000000000000000001 !
#2370
b00000000000000000000000000000000 !
#2371
b00000000000000000000000000000110 !
#2380
b00000000000000000000000101000001 !
#2381
b00000000000000000000000001000111 !
#2382
b11111111111111111111111101001101 !
#2384
b00000000000000000000000000000000 !
#2386
b00000000000000000000000001000111 !
#2395
b00000000000000000000000000000000 !
#2405
b00000000000000000000000000000100 !
#2414
b00000000000000000000000101000010 !
#2415
b00000000000000000000000001001000 !
#2416
b11111111111111111111111101001110 !
#2418
b00000000000000000000000000000000 !
#2420
b00000000000000000000000001001000 !
#2429
b00000000000000000000000000000000 !
#2439
b00000000000000000000000000000011 !
#2448
b00000000000000000000000101000011 !
#2449
b00000000000000000000000001001001 !
#2450
b11111111111111111111111101001111 !
#2452
b00000000000000000000000000000000 !
#2454
b00000000000000000000000001001001 !
#2463
b00000000000000000000000000000000 !
#2473
b00000000000000000000000000000010 !
#2482
b00000000000000000000000101000100 !
#2483
b00000000000000000000000001001010 !
#2484
b11111111111111111111111101010000 !
#2486
b00000000000000000000000000000000 !
#2488
b00000000000000000000000001001010 !
#2497
b00000000000000000000000000000000 !
#2507
b00000000000000000000000000000001 !
#2516
b00000000000000000000000101000101 !
#2517
b00000000000000000000000001001011 !
#2518
b11111111111111111111111101010001 !
#2520
b00000000000000000000000000000000 !
#2522
b00000000000000000000000001001011 !
#2531
b00000000000000000000000000000000 !
#2541
b00000000000000000000000000000001 !
#2550
b00000000000000000000000101000110 !
#2551
b00000000000000000000000001001100 !
#2552
b11111111111111111111111101010010 !
#2554
b00000000000000000000000000000000 !
#2556
b00000000000000000000000001001100 !
#2565
b00000000000000000000000000000000 !
#2575
b00000000000000000000000000000001 !
#2584
b00000000000000000000000101000111 !
#2585
b00000000000000000000000001001101 !
#2586
b11111111111111111111111101010011 !
#2588
b00000000000000000000000000000000 !
#2590
b00000000000000000000000001001101 !
#2599
b00000000000000000000000000000000 !
#2609
b00000000000000000000000000000001 !
#2618
b00000000000000000000000101001000 !
#2619
b00000000000000000000000001001110 !
#2620
b11111111111111111111111101010100 !
#2622
b00000000000000000000000000000000 !
#2624
b00000000000000000000000001001110 !
#2633
b00000000000000000000000000000000 !
#2643
b00000000000000000000000000000001 !
#2652
b00000000000000000000000101001001 !
#2653
b00000000000000000000000001001111 !
#2654
b11111111111111111111111101010101 !
#2656
b00000000000000000000000000000000 !
#2658
b00000000000000000000000001001111 !
#2667
b00000000000000000000000000000000 !
#2686
b00000000000000000000000101001010 !
#2687
b00000000000000000000000001010000 !
#2688
b11111111111111111111111101010110 !
#2690
b00000000000000000000000000000000 !
#2692
b00000000000000000000000001010000 !
#2701
b00000000000000000000000000000000 !
#2720
b00000000000000000000000101001011 !
#2721
b00000000000000000000000001010001 !
#2722
b11111111111111111111111101010111 !
#2724
b00000000000000000000000000000000 !
#2726
b00000000000000000000000001010001 !
#2735
b00000000000000000000000000000000 !
#2754
b00000000000000000000000101001100 !
#2755
b00000000000000000000000001010010 !
#2756
b11111111111111111111111101011000 !
#2758
b00000000000000000000000000000000 !
#2760
b00000000000000000000000001010010 !
#2769
b00000000000000000000000000000000 !
#2788
b00000000000000000000000101001101 !
#2789
b00000000000000000000000001010011 !
#2790
b11111111111111111111111101011001 !
#2792
b00000000000000000000000000000000 !
#2794
b00000000000000000000000001010011 !
#2803
b00000000000000000000000000000000 !
#2822
b00000000000000000000000101001110 !
#2823
b00000000000000000000000001010100 !
#2824
b11111111111111111111111101011010 !
#2826
b00000000000000000000000000000000 !
#2828
b00000000000000000000000001010100 !
#2837
b00000000000000000000000000000000 !
#2856
b00000000000000000000000101001111 !
#2857
b00000000000000000000000001010101 !
#2858
b11111111111111111111111101011011 !
#2860
b00000000000000000000000000000000 !
#2862
b00000000000000000000000001010101 !
#2871
b00000000000000000000000000000000 !
#2872
b00000000000000000000000000000001 !
#2880
b00000000000000000000000000000000 !
#2890
b00000000000000000000000101010000 !
#2891
b00000000000000000000000001010110 !
#2892
b11111111111111111111111101011100 !
#2894
b00000000000000000000000000000000 !
#2896
b00000000000000000000000001010110 !
#2905
b00000000000000000000000000000000 !
#2906
b00000000000000000000000000000001 !
#2914
b00000000000000000000000000000000 !
#2924
b00000000000000000000000101010001 !
#2925
b00000000000000000000000001010111 !
#2926
b11111111111111111111111101011101 !
#2928
b00000000000000000000000000000000 !
#2930
b00000000000000000000000001010111 !
#2939
b00000000000000000000000000000000 !
#2958
b00000000000000000000000101010010 !
#2959
b00000000000000000000000001011000 !
#2960
b11111111111111111111111101011110 !
#2962
b00000000000000000000000000000000 !
#2964
b00000000000000000000000001011000 !
#2973
b00000000000000000000000000000000 !
#2992
b00000000000000000000000101010011 !
#2993
b00000000000000000000000001011001 !
#2994
b11111111111111111111111101011111 !
#2996
b00000000000000000000000000000000 !
#2998
b00000000000000000000000001011001 !
#3007
b00000000000000000000000000000000 !
#3026
b00000000000000000000000101010100 !
#3027
b00000000000000000000000001011010 !
#3028
b11111111111111111111111101100000 !
#3030
b00000000000000000000000000000000 !
#3032
b00000000000000000000000001011010 !
#3041
b00000000000000000000000000000000 !
#3042
b00000000000000000000000000000001 !
#3050
b00000000000000000000000000000000 !
#3060
b00000000000000000000000101010101 !
#3061
b00000000000000000000000001011011 !
#3062
b11111111111111111111111101100001 !
#3064
b00000000000000000000000000000000 !
#3066
b00000000000000000000000001011011 !
#3075
b00000000000000000000000000000000 !
#3076
b00000000000000000000000000000100 !
#3084
b00000000000000000000000000000000 !
#3094
b00000000000000000000000101010110 !
#3095
b00000000000000000000000001011100 !
#3096
b11111111111111111111111101100010 !
#3098
b00000000000000000000000000000000 !
#3100
b00000000000000000000000001011100 !
#3109
b00000000000000000000000000000000 !
#3110
b00000000000000000000000000001001 !
#3118
b00000000000000000000000000000000 !
#3128
b00000000000000000000000101010111 !
#3129
b00000000000000000000000001011101 !
#3130
b11111111111111111111111101100011 !
#3132
b00000000000000000000000000000000 !
#3134
b00000000000000000000000001011101 !
#3143
b00000000000000000000000000000000 !
#3144
b00000000000000000000000000001001 !
#3152
b00000000000000000000000000000000 !
#3162
b00000000000000000000000101011000 !
#3163
b00000000000000000000000001011110 !
#3164
b11111111111111111111111101100100 !
#3166
b00000000000000000000000000000000 !
#3168
b00000000000000000000000001011110 !
#3177
b00000000000000000000000000000000 !
#3178
b00000000000000000000000000001001 !
#3186
b00000000000000000000000000000000 !
#3187
b00000000000000000000000000000001 !
#3196
b00000000000000000000000101011001 !
#3197
b00000000000000000000000001011111 !
#3198
b11111111111111111111111101100101 !
#3200
b00000000000000000000000000000000 !
#3202
b00000000000000000000000001011111 !
#3211
b00000000000000000000000000000000 !
#3212
b00000000000000000000000000001001 !
#3220
b00000000000000000000000000000000 !
#3221
b00000000000000000000000000000001 !
#3230
b00000000000000000000000101011010 !
#3231
b00000000000000000000000001100000 !
#3232
b11111111111111111111111101100110 !
#3234
b00000000000000000000000000000000 !
#3236
b00000000000000000000000001100000 !
#3245
b00000000000000000000000000000000 !
#3246
b00000000000000000000000000001001 !
#3254
b00000000000000000000000000000000 !
#3255
b00000000000000000000000000000001 !
#3264
b00000000000000000000000101011011 !
#3265
b00000000000000000000000001100001 !
#3266
b11111111111111111111111101100111 !
#3268
b00000000000000000000000000000000 !
#3270
b00000000000000000000000001100001 !
