Assignment2/TRACE.vcd
$var reg 	32 !	CPU.M_dataout  $end
$var reg 	1 "	CPU.M_dataoutrdy  $end
$var reg 	1 #	CPU.stall  $end
$var reg 	1 $	bus.reqDataMem  $end
$var reg 	32 %	bus.cmdDataMem  $end
$var reg 	32 &	bus.datainDataMem  $end
$var reg 	1 '	bus.ackDataMem  $end
$var reg 	1 (	bus.dataRdyDataMem  $end
$var reg 	32 )	bus.dataoutDataMem  $end
$var reg 	1 *	bus.waitDataMem  $end
$var reg 	1 +	bus.reqSensor  $end
$var reg 	32 ,	bus.cmdSensor  $end
$var reg 	1 -	bus.ackSensor  $end
$var reg 	1 .	bus.dataRdySensor  $end
$var reg 	32 /	bus.dataoutSensor  $end
$var reg 	1 0	bus.waitSensor  $end
$var reg 	1 1	bus.reqOutput  $end
$var reg 	32 2	bus.cmdOutput  $end
$var reg 	32 3	bus.datainOutput  $end
$var reg 	1 4	bus.ackOutput  $end
$var reg 	1 5	bus.dataRdyOutput  $end
$var reg 	32 6	bus.dataoutOutput  $end
$var reg 	1 7	bus.waitOutput  $end
$var reg 	1 8	bus.reqCPU  $end
$var reg 	32 9	bus.cmdCPU  $end
$var reg 	32 :	bus.dataoutCPU  $end
$var reg 	1 ;	bus.ackCPU  $end
$var reg 	1 <	bus.dataRdyCPU  $end
$var reg 	32 =	bus.datainCPU  $end
$var reg 	1 >	bus.waitCPU  $end
$var reg 	32 ?	bus_toplevel.DM_datain  $end
$var reg 	1 @	bus_toplevel.DM_datainrdy  $end
$var reg 	32 A	bus_toplevel.DM_dataout  $end
$var reg 	32 B	bus_toplevel.DM_cmdout  $end
$var reg 	1 C	bus_toplevel.DM_dataoutrdy  $end
$var reg 	32 D	bus_toplevel.SS_datain  $end
$var reg 	1 E	bus_toplevel.SS_datainrdy  $end
$var reg 	32 F	bus_toplevel.SS_dataout  $end
$var reg 	32 G	bus_toplevel.SS_cmdout  $end
$var reg 	1 H	bus_toplevel.SS_dataoutrdy  $end
$var reg 	32 I	bus_toplevel.OP_datain  $end
$var reg 	1 J	bus_toplevel.OP_datainrdy  $end
$var reg 	32 K	bus_toplevel.OP_dataout  $end
$var reg 	32 L	bus_toplevel.OP_cmdout  $end
$var reg 	1 M	bus_toplevel.OP_dataoutrdy  $end
$var reg 	12 N	DataMem.address  $end
$var reg 	1 O	DataMem.wr  $end
$var reg 	1 P	DataMem.rd  $end
$var reg 	32 Q	DataMem.idata  $end
$var reg 	32 R	Sensor.odata  $end
$var reg 	10 S	Sensor.c  $end
$var reg 	32 T	Output.FilterOut  $end
$var reg 	10 U	Output.count  $end
$enddefinitions $end 
$enddefinitions $end 
#1
b00000000000000000000000000000000 !
b0 "
b0 #
b0 $
b00000000000000000000000000000000 %
b00000000000000000000000000000000 &
b0 '
b0 (
b00000000000000000000000000000000 )
b0 *
b0 +
b00000000000000000000000000000000 ,
b0 -
b0 .
b00000000000000000000000000000000 /
b0 0
b0 1
b00000000000000000000000000000000 2
b00000000000000000000000000000000 3
b0 4
b0 5
b00000000000000000000000000000000 6
b0 7
b0 8
b00000000000000000000000000000000 9
b00000000000000000000000000000000 :
b0 ;
b0 <
b00000000000000000000000000000000 =
b0 >
b00000000000000000000000000000000 ?
b0 @
b00000000000000000000000000000000 A
b00000000000000000000000000000000 B
b0 C
b11111111111111111111111100110110 D
b0 E
b00000000000000000000000000000000 F
b00000000000000000000000000000000 G
b0 H
b00000000000000000000000100100011 I
b0 J
b00000000000000000000000000000000 K
b00000000000000000000000000000000 L
b0 M
b000000000000 N
b0 O
b1 P
b00000000000000000000000000000000 Q
b11111111111111111111111100110110 R
b0000000000 S
b00000000000000000000000000000000 T
b0000000000 U
#2
b00000000000000000000000000000000 !
b0 "
b0 #
b0 $
b00000000000000000000000000000000 %
b00000000000000000000000000000000 &
b0 '
b0 (
b00000000000000000000000000000000 )
b0 *
b0 +
b00000000000000000000000000000000 ,
b0 -
b0 .
b00000000000000000000000000000000 /
b0 0
b0 1
b00000000000000000000000000000000 2
b00000000000000000000000000000000 3
b0 4
b0 5
b00000000000000000000000000000000 6
b0 7
b0 8
b00100000000000000000000000000000 9
b00000000000000000000000000000000 :
b0 ;
b0 <
b00000000000000000000000000000000 =
b0 >
b00000000000000000000000000000000 ?
b0 @
b00000000000000000000000000000000 A
b00000000000000000000000000000000 B
b0 C
b11111111111111111111111100110110 D
b0 E
b00000000000000000000000000000000 F
b00000000000000000000000000000000 G
b0 H
b00000000000000000000000100100011 I
b0 J
b00000000000000000000000000000000 K
b00000000000000000000000000000000 L
b0 M
b000000000000 N
b0 O
b1 P
b00000000000000000000000000000000 Q
b11111111111111111111111100110110 R
b0000000000 S
b00000000000000000000000000000000 T
b0000000000 U
#3
b00000000000000000000000000000000 !
b0 "
b0 #
b0 $
b00000000000000000000000000000000 %
b00000000000000000000000000000000 &
b0 '
b0 (
b00000000000000000000000000000000 )
b0 *
b0 +
b00000000000000000000000000000000 ,
b0 -
b0 .
b00000000000000000000000000000000 /
b0 0
b0 1
b00000000000000000000000000000000 2
b00000000000000000000000000000000 3
b0 4
b0 5
b00000000000000000000000000000000 6
b0 7
b0 8
b00100000000000000000000000000000 9
b00000000000000000000000000000000 :
b0 ;
b0 <
b00000000000000000000000000000000 =
b0 >
b00000000000000000000000000000000 ?
b0 @
b00000000000000000000000000000000 A
b00000000000000000000000000000000 B
b0 C
b11111111111111111111111100110110 D
b0 E
b00000000000000000000000000000000 F
b00000000000000000000000000000000 G
b0 H
b00000000000000000000000100100011 I
b0 J
b00000000000000000000000000000000 K
b00000000000000000000000000000000 L
b0 M
b000000000000 N
b0 O
b1 P
b00000000000000000000000000000000 Q
b11111111111111111111111100110110 R
b0000000001 S
b00000000000000000000000000000000 T
b0000000000 U
#4
b00000000000000000000000000000000 !
b0 "
b0 #
b0 $
b00000000000000000000000000000000 %
b00000000000000000000000000000000 &
b0 '
b0 (
b00000000000000000000000000000000 )
b0 *
b0 +
b00000000000000000000000000000000 ,
b0 -
b0 .
b00000000000000000000000000000000 /
b0 0
b0 1
b00000000000000000000000000000000 2
b00000000000000000000000000000000 3
b0 4
b0 5
b00000000000000000000000000000000 6
b0 7
b0 8
b00100000000000000000000000000000 9
b00000000000000000000000000000000 :
b0 ;
b0 <
b00000000000000000000000000000000 =
b0 >
b00000000000000000000000000000000 ?
b0 @
b00000000000000000000000000000000 A
b00000000000000000000000000000000 B
b0 C
b11111111111111111111111100110110 D
b0 E
b00000000000000000000000000000000 F
b00000000000000000000000000000000 G
b0 H
b00000000000000000000000100100011 I
b0 J
b00000000000000000000000000000000 K
b00000000000000000000000000000000 L
b0 M
b000000000000 N
b0 O
b1 P
b00000000000000000000000000000000 Q
b11111111111111111111111100110110 R
b0000000010 S
b00000000000000000000000000000000 T
b0000000000 U
#5
b00000000000000000000000000000000 !
b0 "
b0 #
b0 $
b00000000000000000000000000000000 %
b00000000000000000000000000000000 &
b0 '
b0 (
b00000000000000000000000000000000 )
b0 *
b0 +
b00000000000000000000000000000000 ,
b0 -
b0 .
b00000000000000000000000000000000 /
b0 0
b0 1
b00000000000000000000000000000000 2
b00000000000000000000000000000000 3
b0 4
b0 5
b00000000000000000000000000000000 6
b0 7
b0 8
b00100000000000000000000000000001 9
b00000000000000000000000000000001 :
b0 ;
b0 <
b00000000000000000000000000000000 =
b0 >
b00000000000000000000000000000000 ?
b0 @
b00000000000000000000000000000000 A
b00000000000000000000000000000000 B
b0 C
b11111111111111111111111100110110 D
b0 E
b00000000000000000000000000000000 F
b00000000000000000000000000000000 G
b0 H
b00000000000000000000000100100011 I
b0 J
b00000000000000000000000000000000 K
b00000000000000000000000000000000 L
b0 M
b000000000000 N
b0 O
b1 P
b00000000000000000000000000000000 Q
b11111111111111111111111100110110 R
b0000000011 S
b00000000000000000000000000000000 T
b0000000000 U
#6
b00000000000000000000000000000000 !
b0 "
b0 #
b0 $
b00000000000000000000000000000000 %
b00000000000000000000000000000000 &
b0 '
b0 (
b00000000000000000000000000000000 )
b0 *
b0 +
b00000000000000000000000000000000 ,
b0 -
b0 .
b00000000000000000000000000000000 /
b0 0
b0 1
b00000000000000000000000000000000 2
b00000000000000000000000000000000 3
b0 4
b0 5
b00000000000000000000000000000000 6
b0 7
b0 8
b00100000000000000000000011111011 9
b00000000000000000000000011111011 :
b0 ;
b0 <
b00000000000000000000000000000000 =
b0 >
b00000000000000000000000000000000 ?
b0 @
b00000000000000000000000000000000 A
b00000000000000000000000000000000 B
b0 C
b11111111111111111111111100110110 D
b0 E
b00000000000000000000000000000000 F
b00000000000000000000000000000000 G
b0 H
b00000000000000000000000100100011 I
b0 J
b00000000000000000000000000000000 K
b00000000000000000000000000000000 L
b0 M
b000000000000 N
b0 O
b1 P
b00000000000000000000000000000000 Q
b11111111111111111111111100110110 R
b0000000100 S
b00000000000000000000000000000000 T
b0000000000 U
#7
b00000000000000000000000000000000 !
b0 "
b0 #
b0 $
b00000000000000000000000000000000 %
b00000000000000000000000000000000 &
b0 '
b0 (
b00000000000000000000000000000000 )
b0 *
b0 +
b00000000000000000000000000000000 ,
b0 -
b0 .
b00000000000000000000000000000000 /
b0 0
b0 1
b00000000000000000000000000000000 2
b00000000000000000000000000000000 3
b0 4
b0 5
b00000000000000000000000000000000 6
b0 7
b0 8
b00100000000000000000000000011110 9
b00000000000000000000000000011110 :
b0 ;
b0 <
b00000000000000000000000000000000 =
b0 >
b00000000000000000000000000000000 ?
b0 @
b00000000000000000000000000000000 A
b00000000000000000000000000000000 B
b0 C
b11111111111111111111111100110110 D
b0 E
b00000000000000000000000000000000 F
b00000000000000000000000000000000 G
b0 H
b00000000000000000000000100100011 I
b0 J
b00000000000000000000000000000000 K
b00000000000000000000000000000000 L
b0 M
b000000000000 N
b0 O
b1 P
b00000000000000000000000000000000 Q
b11111111111111111111111100110110 R
b0000000101 S
b00000000000000000000000000000000 T
b0000000000 U
#8
b00000000000000000000000000000000 !
b0 "
b0 #
b0 $
b00000000000000000000000000000000 %
b00000000000000000000000000000000 &
b0 '
b0 (
b00000000000000000000000000000000 )
b0 *
b0 +
b00000000000000000000000000000000 ,
b0 -
b0 .
b00000000000000000000000000000000 /
b0 0
b0 1
b00000000000000000000000000000000 2
b00000000000000000000000000000000 3
b0 4
b0 5
b00000000000000000000000000000000 6
b0 7
b0 8
b00100000000000000000000000000000 9
b00000000000000000000000000000000 :
b0 ;
b0 <
b00000000000000000000000000000000 =
b0 >
b00000000000000000000000000000000 ?
b0 @
b00000000000000000000000000000000 A
b00000000000000000000000000000000 B
b0 C
b11111111111111111111111100110110 D
b0 E
b00000000000000000000000000000000 F
b00000000000000000000000000000000 G
b0 H
b00000000000000000000000100100011 I
b0 J
b00000000000000000000000000000000 K
b00000000000000000000000000000000 L
b0 M
b000000000000 N
b0 O
b1 P
b00000000000000000000000000000000 Q
b11111111111111111111111100110110 R
b0000000110 S
b00000000000000000000000000000000 T
b0000000000 U
#9
b00000000000000000000000000000000 !
b0 "
b0 #
b0 $
b00000000000000000000000000000000 %
b00000000000000000000000000000000 &
b0 '
b0 (
b00000000000000000000000000000000 )
b0 *
b0 +
b00000000000000000000000000000000 ,
b0 -
b0 .
b00000000000000000000000000000000 /
b0 0
b0 1
b00000000000000000000000000000000 2
b00000000000000000000000000000000 3
b0 4
b0 5
b00000000000000000000000000000000 6
b0 7
b0 8
b00100000000000000000000000011110 9
b00000000000000000000000000011110 :
b0 ;
b0 <
b00000000000000000000000000000000 =
b0 >
b00000000000000000000000000000000 ?
b0 @
b00000000000000000000000000000000 A
b00000000000000000000000000000000 B
b0 C
b11111111111111111111111100110110 D
b0 E
b00000000000000000000000000000000 F
b00000000000000000000000000000000 G
b0 H
b00000000000000000000000100100011 I
b0 J
b00000000000000000000000000000000 K
b00000000000000000000000000000000 L
b0 M
b000000000000 N
b0 O
b1 P
b00000000000000000000000000000000 Q
b11111111111111111111111100110110 R
b0000000111 S
b00000000000000000000000000000000 T
b0000000000 U
#10
b00000000000000000000000000000000 !
b0 "
b0 #
b0 $
b00000000000000000000000000000000 %
b00000000000000000000000000000000 &
b0 '
b0 (
b00000000000000000000000000000000 )
b0 *
b0 +
b00000000000000000000000000000000 ,
b0 -
b0 .
b00000000000000000000000000000000 /
b0 0
b0 1
b00000000000000000000000000000000 2
b00000000000000000000000000000000 3
b0 4
b0 5
b00000000000000000000000000000000 6
b0 7
b0 8
b00100000000000000000000000011110 9
b00000000000000000000000000011110 :
b0 ;
b0 <
b00000000000000000000000000000000 =
b0 >
b00000000000000000000000000000000 ?
b0 @
b00000000000000000000000000000000 A
b00000000000000000000000000000000 B
b0 C
b11111111111111111111111100110110 D
b0 E
b00000000000000000000000000000000 F
b00000000000000000000000000000000 G
b0 H
b00000000000000000000000100100011 I
b0 J
b00000000000000000000000000000000 K
b00000000000000000000000000000000 L
b0 M
b000000000000 N
b0 O
b1 P
b00000000000000000000000000000000 Q
b11111111111111111111111100110110 R
b0000001000 S
b00000000000000000000000000000000 T
b0000000000 U
#11
b00000000000000000000000000000000 !
b0 "
b0 #
b0 $
b00000000000000000000000000000000 %
b00000000000000000000000000000000 &
b0 '
b0 (
b00000000000000000000000000000000 )
b0 *
b0 +
b00000000000000000000000000000000 ,
b0 -
b0 .
b00000000000000000000000000000000 /
b0 0
b0 1
b00000000000000000000000000000000 2
b00000000000000000000000000000000 3
b0 4
b0 5
b00000000000000000000000000000000 6
b0 7
b0 8
b00100000000000000000000000000000 9
b00000000000000000000000000000000 :
b0 ;
b0 <
b00000000000000000000000000000000 =
b0 >
b00000000000000000000000000000000 ?
b0 @
b00000000000000000000000000000000 A
b00000000000000000000000000000000 B
b0 C
b11111111111111111111111100110110 D
b0 E
b00000000000000000000000000000000 F
b00000000000000000000000000000000 G
b0 H
b00000000000000000000000100100011 I
b0 J
b00000000000000000000000000000000 K
b00000000000000000000000000000000 L
b0 M
b000000000000 N
b0 O
b1 P
b00000000000000000000000000000000 Q
b11111111111111111111111100110110 R
b0000001001 S
b00000000000000000000000000000000 T
b0000000000 U
#12
b00000000000000000000000000000000 !
b0 "
b0 #
b0 $
b00000000000000000000000000000000 %
b00000000000000000000000000000000 &
b0 '
b0 (
b00000000000000000000000000000000 )
b0 *
b0 +
b00000000000000000000000000000000 ,
b0 -
b0 .
b00000000000000000000000000000000 /
b0 0
b0 1
b00000000000000000000000000000000 2
b00000000000000000000000000000000 3
b0 4
b0 5
b00000000000000000000000000000000 6
b0 7
b0 8
b00100000000000000000000000000001 9
b00000000000000000000000000000001 :
b0 ;
b0 <
b00000000000000000000000000000000 =
b0 >
b00000000000000000000000000000000 ?
b0 @
b00000000000000000000000000000000 A
b00000000000000000000000000000000 B
b0 C
b11111111111111111111111100111001 D
b0 E
b00000000000000000000000000000000 F
b00000000000000000000000000000000 G
b0 H
b00000000000000000000000100100011 I
b0 J
b00000000000000000000000000000000 K
b00000000000000000000000000000000 L
b0 M
b000000000000 N
b0 O
b1 P
b00000000000000000000000000000000 Q
b11111111111111111111111100111001 R
b0000000000 S
b00000000000000000000000000000000 T
b0000000000 U
#13
b00000000000000000000000000000000 !
b0 "
b1 #
b0 $
b00000000000000000000000000000000 %
b00000000000000000000000000000000 &
b0 '
b0 (
b00000000000000000000000000000000 )
b0 *
b0 +
b00000000000000000000000000000000 ,
b0 -
b0 .
b00000000000000000000000000000000 /
b0 0
b0 1
b00000000000000000000000000000000 2
b00000000000000000000000000000000 3
b0 4
b0 5
b00000000000000000000000000000000 6
b0 7
b0 8
b00100000000000000000000000000001 9
b00000000000000000000000000000001 :
b0 ;
b0 <
b00000000000000000000000000000000 =
b0 >
b00000000000000000000000000000000 ?
b0 @
b00000000000000000000000000000000 A
b00000000000000000000000000000000 B
b0 C
b11111111111111111111111100111001 D
b0 E
b00000000000000000000000000000000 F
b00000000000000000000000000000000 G
b0 H
b00000000000000000000000100100011 I
b0 J
b00000000000000000000000000000000 K
b00000000000000000000000000000000 L
b0 M
b000000000000 N
b0 O
b1 P
b00000000000000000000000000000000 Q
b11111111111111111111111100111001 R
b0000000001 S
b00000000000000000000000000000000 T
b0000000000 U
#14
b00000000000000000000000000000000 !
b0 "
b1 #
b1 $
b00100000000000000000000000000001 %
b00000000000000000000000000000001 &
b0 '
b0 (
b00000000000000000000000000000000 )
b0 *
b1 +
b00100000000000000000000000000001 ,
b0 -
b0 .
b00000000000000000000000000000000 /
b0 0
b1 1
b00100000000000000000000000000001 2
b00000000000000000000000000000001 3
b0 4
b0 5
b00000000000000000000000000000000 6
b0 7
b1 8
b00100000000000000000000000000001 9
b00000000000000000000000000000001 :
b0 ;
b0 <
b00000000000000000000000000000000 =
b0 >
b00000000000000000000000000000000 ?
b0 @
b00000000000000000000000000000000 A
b00000000000000000000000000000000 B
b0 C
b11111111111111111111111100111001 D
b0 E
b00000000000000000000000000000000 F
b00000000000000000000000000000000 G
b0 H
b00000000000000000000000100100011 I
b0 J
b00000000000000000000000000000000 K
b00000000000000000000000000000000 L
b0 M
b000000000000 N
b0 O
b1 P
b00000000000000000000000000000000 Q
b11111111111111111111111100111001 R
b0000000010 S
b00000000000000000000000000000000 T
b0000000000 U
#15
b00000000000000000000000000000000 !
b0 "
b0 #
b1 $
b00100000000000000000000000011110 %
b00000000000000000000000000011110 &
b1 '
b0 (
b00000000000000000000000000000000 )
b0 *
b1 +
b00100000000000000000000000011110 ,
b0 -
b0 .
b00000000000000000000000000000000 /
b0 0
b1 1
b00100000000000000000000000011110 2
b00000000000000000000000000011110 3
b0 4
b0 5
b00000000000000000000000000000000 6
b0 7
b1 8
b00100000000000000000000000011110 9
b00000000000000000000000000011110 :
b1 ;
b0 <
b00000000000000000000000000000000 =
b0 >
b00000000000000000000000000000000 ?
b0 @
b00000000000000000000000000011110 A
b00100000000000000000000000011110 B
b1 C
b11111111111111111111111100111001 D
b0 E
b00000000000000000000000000000000 F
b00000000000000000000000000000000 G
b0 H
b00000000000000000000000100100011 I
b0 J
b00000000000000000000000000000000 K
b00000000000000000000000000000000 L
b0 M
b000000000000 N
b0 O
b1 P
b00000000000000000000000000000000 Q
b11111111111111111111111100111001 R
b0000000011 S
b00000000000000000000000000000000 T
b0000000000 U
#16
b00000000000000000000000000000000 !
b0 "
b0 #
b0 $
b00000000000000000000000000000000 %
b00000000000000000000000000000000 &
b1 '
b0 (
b00000000000000000000000000000000 )
b0 *
b0 +
b00000000000000000000000000000000 ,
b0 -
b0 .
b00000000000000000000000000000000 /
b0 0
b0 1
b00000000000000000000000000000000 2
b00000000000000000000000000000000 3
b0 4
b0 5
b00000000000000000000000000000000 6
b0 7
b0 8
b00100000000000000000000000011110 9
b00000000000000000000000000011110 :
b1 ;
b0 <
b00000000000000000000000000000000 =
b0 >
b00000000000000000000000000000000 ?
b0 @
b00000000000000000000000000000000 A
b00000000000000000000000000000000 B
b0 C
b11111111111111111111111100111001 D
b0 E
b00000000000000000000000000000000 F
b00000000000000000000000000000000 G
b0 H
b00000000000000000000000100100011 I
b0 J
b00000000000000000000000000000000 K
b00000000000000000000000000000000 L
b0 M
b000000011110 N
b0 O
b1 P
b00000000000000000000000000000000 Q
b11111111111111111111111100111001 R
b0000000100 S
b00000000000000000000000000000000 T
b0000000000 U
#17
b00000000000000000000000000000000 !
b0 "
b0 #
b0 $
b00000000000000000000000000000000 %
b00000000000000000000000000000000 &
b0 '
b0 (
b00000000000000000000000000000000 )
b0 *
b0 +
b00000000000000000000000000000000 ,
b0 -
b0 .
b00000000000000000000000000000000 /
b0 0
b0 1
b00000000000000000000000000000000 2
b00000000000000000000000000000000 3
b0 4
b0 5
b00000000000000000000000000000000 6
b0 7
b0 8
b00100000000000000000000000000001 9
b00000000000000000000000000000001 :
b0 ;
b0 <
b00000000000000000000000000000000 =
b0 >
b00000000000000000000000000011001 ?
b0 @
b00000000000000000000000000000000 A
b00000000000000000000000000000000 B
b0 C
b11111111111111111111111100111001 D
b0 E
b00000000000000000000000000000000 F
b00000000000000000000000000000000 G
b0 H
b00000000000000000000000100100011 I
b0 J
b00000000000000000000000000000000 K
b00000000000000000000000000000000 L
b0 M
b000000011110 N
b0 O
b1 P
b00000000000000000000000000000000 Q
b11111111111111111111111100111001 R
b0000000101 S
b00000000000000000000000000000000 T
b0000000000 U
#18
b00000000000000000000000000000000 !
b0 "
b0 #
b0 $
b00000000000000000000000000000000 %
b00000000000000000000000000000000 &
b0 '
b0 (
b00000000000000000000000000000000 )
b0 *
b0 +
b00000000000000000000000000000000 ,
b0 -
b0 .
b00000000000000000000000000000000 /
b0 0
b0 1
b00000000000000000000000000000000 2
b00000000000000000000000000000000 3
b0 4
b0 5
b00000000000000000000000000000000 6
b0 7
b0 8
b00100000000000000000000000000000 9
b00000000000000000000000000000000 :
b0 ;
b0 <
b00000000000000000000000000000000 =
b0 >
b00000000000000000000000000011001 ?
b0 @
b00000000000000000000000000000000 A
b00000000000000000000000000000000 B
b0 C
b11111111111111111111111100111001 D
b0 E
b00000000000000000000000000000000 F
b00000000000000000000000000000000 G
b0 H
b00000000000000000000000100100011 I
b0 J
b00000000000000000000000000000000 K
b00000000000000000000000000000000 L
b0 M
b000000011110 N
b0 O
b1 P
b00000000000000000000000000000000 Q
b11111111111111111111111100111001 R
b0000000110 S
b00000000000000000000000000000000 T
b0000000000 U
#19
b00000000000000000000000000000000 !
b0 "
b0 #
b0 $
b00000000000000000000000000000000 %
b00000000000000000000000000000000 &
b0 '
b0 (
b00000000000000000000000000000000 )
b0 *
b0 +
b00000000000000000000000000000000 ,
b0 -
b0 .
b00000000000000000000000000000000 /
b0 0
b0 1
b00000000000000000000000000000000 2
b00000000000000000000000000000000 3
b0 4
b0 5
b00000000000000000000000000000000 6
b0 7
b0 8
b00100000000000000000000000000000 9
b00000000000000000000000000000000 :
b0 ;
b0 <
b00000000000000000000000000000000 =
b0 >
b00000000000000000000000000011001 ?
b1 @
b00000000000000000000000000000000 A
b00000000000000000000000000000000 B
b0 C
b11111111111111111111111100111001 D
b0 E
b00000000000000000000000000000000 F
b00000000000000000000000000000000 G
b0 H
b00000000000000000000000100100011 I
b0 J
b00000000000000000000000000000000 K
b00000000000000000000000000000000 L
b0 M
b000000011110 N
b0 O
b1 P
b00000000000000000000000000000000 Q
b11111111111111111111111100111001 R
b0000000111 S
b00000000000000000000000000000000 T
b0000000000 U
#20
b00000000000000000000000000000000 !
b0 "
b0 #
b0 $
b00000000000000000000000000000000 %
b00000000000000000000000000000000 &
b0 '
b1 (
b00000000000000000000000000011001 )
b0 *
b0 +
b00000000000000000000000000000000 ,
b0 -
b0 .
b00000000000000000000000000000000 /
b0 0
b0 1
b00000000000000000000000000000000 2
b00000000000000000000000000000000 3
b0 4
b0 5
b00000000000000000000000000000000 6
b0 7
b0 8
b00100000000000000000000000011101 9
b00000000000000000000000000011101 :
b0 ;
b1 <
b00000000000000000000000000011001 =
b0 >
b00000000000000000000000000011001 ?
b0 @
b00000000000000000000000000000000 A
b00000000000000000000000000000000 B
b0 C
b11111111111111111111111100111001 D
b0 E
b00000000000000000000000000000000 F
b00000000000000000000000000000000 G
b0 H
b00000000000000000000000100100011 I
b0 J
b00000000000000000000000000000000 K
b00000000000000000000000000000000 L
b0 M
b000000011110 N
b0 O
b1 P
b00000000000000000000000000000000 Q
b11111111111111111111111100111001 R
b0000001000 S
b00000000000000000000000000000000 T
b0000000000 U
#21
b00000000000000000000000000011001 !
b1 "
b0 #
b0 $
b00000000000000000000000000000000 %
b00000000000000000000000000000000 &
b0 '
b1 (
b00000000000000000000000000011001 )
b1 *
b0 +
b00000000000000000000000000000000 ,
b0 -
b0 .
b00000000000000000000000000000000 /
b1 0
b0 1
b00000000000000000000000000000000 2
b00000000000000000000000000000000 3
b0 4
b0 5
b00000000000000000000000000000000 6
b1 7
b0 8
b00000000000000000000000000000000 9
b00000000000000000000000000000000 :
b0 ;
b1 <
b00000000000000000000000000011001 =
b1 >
b00000000000000000000000000011001 ?
b0 @
b00000000000000000000000000000000 A
b00000000000000000000000000000000 B
b0 C
b11111111111111111111111100111001 D
b0 E
b00000000000000000000000000000000 F
b00000000000000000000000000000000 G
b0 H
b00000000000000000000000100100011 I
b0 J
b00000000000000000000000000000000 K
b00000000000000000000000000000000 L
b0 M
b000000000000 N
b0 O
b1 P
b00000000000000000000000000000000 Q
b11111111111111111111111100111001 R
b0000001001 S
b00000000000000000000000000000000 T
b0000000000 U
#22
b00000000000000000000000000000000 !
b0 "
b0 #
b0 $
b00000000000000000000000000000000 %
b00000000000000000000000000000000 &
b0 '
b0 (
b00000000000000000000000000000000 )
b0 *
b0 +
b00000000000000000000000000000000 ,
b0 -
b0 .
b00000000000000000000000000000000 /
b0 0
b0 1
b00000000000000000000000000000000 2
b00000000000000000000000000000000 3
b0 4
b0 5
b00000000000000000000000000000000 6
b0 7
b0 8
b00000000000000000000000000000000 9
b00000000000000000000000000000000 :
b0 ;
b0 <
b00000000000000000000000000000000 =
b0 >
b00000000000000000000000000000000 ?
b0 @
b00000000000000000000000000000000 A
b00000000000000000000000000000000 B
b0 C
b11111111111111111111111100111000 D
b0 E
b00000000000000000000000000000000 F
b00000000000000000000000000000000 G
b0 H
b00000000000000000000000100100011 I
b0 J
b00000000000000000000000000000000 K
b00000000000000000000000000000000 L
b0 M
b000000000000 N
b0 O
b1 P
b00000000000000000000000000000000 Q
b11111111111111111111111100111000 R
b0000000000 S
b00000000000000000000000000000000 T
b0000000000 U
#23
b00000000000000000000000000000000 !
b0 "
b0 #
b0 $
b00000000000000000000000000000000 %
b00000000000000000000000000000000 &
b0 '
b0 (
b00000000000000000000000000000000 )
b0 *
b0 +
b00000000000000000000000000000000 ,
b0 -
b0 .
b00000000000000000000000000000000 /
b0 0
b0 1
b00000000000000000000000000000000 2
b00000000000000000000000000000000 3
b0 4
b0 5
b00000000000000000000000000000000 6
b0 7
b0 8
b00100000000000000000000000000000 9
b00000000000000000000000000000000 :
b0 ;
b0 <
b00000000000000000000000000000000 =
b0 >
b00000000000000000000000000000000 ?
b0 @
b00000000000000000000000000000000 A
b00000000000000000000000000000000 B
b0 C
b11111111111111111111111100111000 D
b0 E
b00000000000000000000000000000000 F
b00000000000000000000000000000000 G
b0 H
b00000000000000000000000100100011 I
b0 J
b00000000000000000000000000000000 K
b00000000000000000000000000000000 L
b0 M
b000000000000 N
b0 O
b1 P
b00000000000000000000000000000000 Q
b11111111111111111111111100111000 R
b0000000001 S
b00000000000000000000000000000000 T
b0000000000 U
#24
b00000000000000000000000000000000 !
b0 "
b1 #
b0 $
b00000000000000000000000000000000 %
b00000000000000000000000000000000 &
b0 '
b0 (
b00000000000000000000000000000000 )
b0 *
b0 +
b00000000000000000000000000000000 ,
b0 -
b0 .
b00000000000000000000000000000000 /
b0 0
b0 1
b00000000000000000000000000000000 2
b00000000000000000000000000000000 3
b0 4
b0 5
b00000000000000000000000000000000 6
b0 7
b0 8
b00100000000000000000000000000000 9
b00000000000000000000000000000000 :
b0 ;
b0 <
b00000000000000000000000000000000 =
b0 >
b00000000000000000000000000000000 ?
b0 @
b00000000000000000000000000000000 A
b00000000000000000000000000000000 B
b0 C
b11111111111111111111111100111000 D
b0 E
b00000000000000000000000000000000 F
b00000000000000000000000000000000 G
b0 H
b00000000000000000000000100100011 I
b0 J
b00000000000000000000000000000000 K
b00000000000000000000000000000000 L
b0 M
b000000000000 N
b0 O
b1 P
b00000000000000000000000000000000 Q
b11111111111111111111111100111000 R
b0000000010 S
b00000000000000000000000000000000 T
b0000000000 U
#25
b00000000000000000000000000000000 !
b0 "
b1 #
b1 $
b00100000000000000000000000000000 %
b00000000000000000000000000000000 &
b0 '
b0 (
b00000000000000000000000000000000 )
b0 *
b1 +
b00100000000000000000000000000000 ,
b0 -
b0 .
b00000000000000000000000000000000 /
b0 0
b1 1
b00100000000000000000000000000000 2
b00000000000000000000000000000000 3
b0 4
b0 5
b00000000000000000000000000000000 6
b0 7
b1 8
b00100000000000000000000000000000 9
b00000000000000000000000000000000 :
b0 ;
b0 <
b00000000000000000000000000000000 =
b0 >
b00000000000000000000000000000000 ?
b0 @
b00000000000000000000000000000000 A
b00000000000000000000000000000000 B
b0 C
b11111111111111111111111100111000 D
b0 E
b00000000000000000000000000000000 F
b00000000000000000000000000000000 G
b0 H
b00000000000000000000000100100011 I
b0 J
b00000000000000000000000000000000 K
b00000000000000000000000000000000 L
b0 M
b000000000000 N
b0 O
b1 P
b00000000000000000000000000000000 Q
b11111111111111111111111100111000 R
b0000000011 S
b00000000000000000000000000000000 T
b0000000000 U
#26
b00000000000000000000000000000000 !
b0 "
b0 #
b1 $
b00100000000000000000000000011110 %
b00000000000000000000000000011110 &
b1 '
b0 (
b00000000000000000000000000000000 )
b0 *
b1 +
b00100000000000000000000000011110 ,
b0 -
b0 .
b00000000000000000000000000000000 /
b0 0
b1 1
b00100000000000000000000000011110 2
b00000000000000000000000000011110 3
b0 4
b0 5
b00000000000000000000000000000000 6
b0 7
b1 8
b00100000000000000000000000011110 9
b00000000000000000000000000011110 :
b1 ;
b0 <
b00000000000000000000000000000000 =
b0 >
b00000000000000000000000000000000 ?
b0 @
b00000000000000000000000000011110 A
b00100000000000000000000000011110 B
b1 C
b11111111111111111111111100111000 D
b0 E
b00000000000000000000000000000000 F
b00000000000000000000000000000000 G
b0 H
b00000000000000000000000100100011 I
b0 J
b00000000000000000000000000000000 K
b00000000000000000000000000000000 L
b0 M
b000000000000 N
b0 O
b1 P
b00000000000000000000000000000000 Q
b11111111111111111111111100111000 R
b0000000100 S
b00000000000000000000000000000000 T
b0000000000 U
