Assignment2/TRACE.vcd
$var reg 	32 !	CPU.M_dataout  $end
$var reg 	1 "	CPU.M_dataoutrdy  $end
$var reg 	1 #	bus.reqDataMem  $end
$var reg 	32 $	bus.cmdDataMem  $end
$var reg 	32 %	bus.datainDataMem  $end
$var reg 	1 &	bus.ackDataMem  $end
$var reg 	1 '	bus.dataRdyDataMem  $end
$var reg 	32 (	bus.dataoutDataMem  $end
$var reg 	1 )	bus.waitDataMem  $end
$var reg 	1 *	bus.reqSensor  $end
$var reg 	32 +	bus.cmdSensor  $end
$var reg 	1 ,	bus.ackSensor  $end
$var reg 	1 -	bus.dataRdySensor  $end
$var reg 	32 .	bus.dataoutSensor  $end
$var reg 	1 /	bus.waitSensor  $end
$var reg 	1 0	bus.reqOutput  $end
$var reg 	32 1	bus.cmdOutput  $end
$var reg 	32 2	bus.datainOutput  $end
$var reg 	1 3	bus.ackOutput  $end
$var reg 	1 4	bus.dataRdyOutput  $end
$var reg 	32 5	bus.dataoutOutput  $end
$var reg 	1 6	bus.waitOutput  $end
$var reg 	1 7	bus.reqCPU  $end
$var reg 	32 8	bus.cmdCPU  $end
$var reg 	32 9	bus.dataoutCPU  $end
$var reg 	1 :	bus.ackCPU  $end
$var reg 	1 ;	bus.dataRdyCPU  $end
$var reg 	32 <	bus.datainCPU  $end
$var reg 	1 =	bus.waitCPU  $end
$var reg 	32 >	bus_toplevel.DM_datain  $end
$var reg 	1 ?	bus_toplevel.DM_datainrdy  $end
$var reg 	32 @	bus_toplevel.DM_dataout  $end
$var reg 	32 A	bus_toplevel.DM_cmdout  $end
$var reg 	1 B	bus_toplevel.DM_dataoutrdy  $end
$var reg 	32 C	bus_toplevel.SS_datain  $end
$var reg 	1 D	bus_toplevel.SS_datainrdy  $end
$var reg 	32 E	bus_toplevel.SS_dataout  $end
$var reg 	32 F	bus_toplevel.SS_cmdout  $end
$var reg 	1 G	bus_toplevel.SS_dataoutrdy  $end
$var reg 	32 H	bus_toplevel.OP_datain  $end
$var reg 	1 I	bus_toplevel.OP_datainrdy  $end
$var reg 	32 J	bus_toplevel.OP_dataout  $end
$var reg 	32 K	bus_toplevel.OP_cmdout  $end
$var reg 	1 L	bus_toplevel.OP_dataoutrdy  $end
$var reg 	12 M	DataMem.address  $end
$var reg 	1 N	DataMem.wr  $end
$var reg 	1 O	DataMem.rd  $end
$var reg 	32 P	DataMem.idata  $end
$var reg 	32 Q	Sensor.odata  $end
$var reg 	10 R	Sensor.c  $end
$var reg 	32 S	Output.FilterOut  $end
$var reg 	10 T	Output.count  $end
$enddefinitions $end 
$enddefinitions $end 
#1
b00000000000000000000000000000000 !
b0 "
b0 #
b00000000000000000000000000000000 $
b00000000000000000000000000000000 %
b0 &
b0 '
b00000000000000000000000000000000 (
b0 )
b0 *
b00000000000000000000000000000000 +
b0 ,
b0 -
b00000000000000000000000000000000 .
b0 /
b0 0
b00000000000000000000000000000000 1
b00000000000000000000000000000000 2
b0 3
b0 4
b00000000000000000000000000000000 5
b0 6
b0 7
b00000000000000000000000000000000 8
b00000000000000000000000000000000 9
b0 :
b0 ;
b00000000000000000000000000000000 <
b0 =
b00000000000000000000000000000000 >
b0 ?
b00000000000000000000000000000000 @
b00000000000000000000000000000000 A
b0 B
b11111111111111111111111100110110 C
b0 D
b00000000000000000000000000000000 E
b00000000000000000000000000000000 F
b0 G
b00000000000000000000000100100011 H
b0 I
b00000000000000000000000000000000 J
b00000000000000000000000000000000 K
b0 L
b000000000000 M
b0 N
b1 O
b00000000000000000000000000000000 P
b11111111111111111111111100110110 Q
b0000000000 R
b00000000000000000000000000000000 S
b0000000000 T
#2
b00000000000000000000000000000000 !
b0 "
b0 #
b00000000000000000000000000000000 $
b00000000000000000000000000000000 %
b0 &
b0 '
b00000000000000000000000000000000 (
b0 )
b0 *
b00000000000000000000000000000000 +
b0 ,
b0 -
b00000000000000000000000000000000 .
b0 /
b0 0
b00000000000000000000000000000000 1
b00000000000000000000000000000000 2
b0 3
b0 4
b00000000000000000000000000000000 5
b0 6
b0 7
b00100000000000000000000000000000 8
b00000000000000000000000000000000 9
b0 :
b0 ;
b00000000000000000000000000000000 <
b0 =
b00000000000000000000000000000000 >
b0 ?
b00000000000000000000000000000000 @
b00000000000000000000000000000000 A
b0 B
b11111111111111111111111100110110 C
b0 D
b00000000000000000000000000000000 E
b00000000000000000000000000000000 F
b0 G
b00000000000000000000000100100011 H
b0 I
b00000000000000000000000000000000 J
b00000000000000000000000000000000 K
b0 L
b000000000000 M
b0 N
b1 O
b00000000000000000000000000000000 P
b11111111111111111111111100110110 Q
b0000000000 R
b00000000000000000000000000000000 S
b0000000000 T
#3
b00000000000000000000000000000000 !
b0 "
b0 #
b00000000000000000000000000000000 $
b00000000000000000000000000000000 %
b0 &
b0 '
b00000000000000000000000000000000 (
b0 )
b0 *
b00000000000000000000000000000000 +
b0 ,
b0 -
b00000000000000000000000000000000 .
b0 /
b0 0
b00000000000000000000000000000000 1
b00000000000000000000000000000000 2
b0 3
b0 4
b00000000000000000000000000000000 5
b0 6
b0 7
b00100000000000000000000000000000 8
b00000000000000000000000000000000 9
b0 :
b0 ;
b00000000000000000000000000000000 <
b0 =
b00000000000000000000000000000000 >
b0 ?
b00000000000000000000000000000000 @
b00000000000000000000000000000000 A
b0 B
b11111111111111111111111100110110 C
b0 D
b00000000000000000000000000000000 E
b00000000000000000000000000000000 F
b0 G
b00000000000000000000000100100011 H
b0 I
b00000000000000000000000000000000 J
b00000000000000000000000000000000 K
b0 L
b000000000000 M
b0 N
b1 O
b00000000000000000000000000000000 P
b11111111111111111111111100110110 Q
b0000000001 R
b00000000000000000000000000000000 S
b0000000000 T
#4
b00000000000000000000000000000000 !
b0 "
b1 #
b00100000000000000000000000000000 $
b00000000000000000000000000000000 %
b0 &
b0 '
b00000000000000000000000000000000 (
b0 )
b1 *
b00100000000000000000000000000000 +
b0 ,
b0 -
b00000000000000000000000000000000 .
b0 /
b1 0
b00100000000000000000000000000000 1
b00000000000000000000000000000000 2
b0 3
b0 4
b00000000000000000000000000000000 5
b0 6
b1 7
b00100000000000000000000000000000 8
b00000000000000000000000000000000 9
b0 :
b0 ;
b00000000000000000000000000000000 <
b0 =
b00000000000000000000000000000000 >
b0 ?
b00000000000000000000000000000000 @
b00000000000000000000000000000000 A
b0 B
b11111111111111111111111100110110 C
b0 D
b00000000000000000000000000000000 E
b00000000000000000000000000000000 F
b0 G
b00000000000000000000000100100011 H
b0 I
b00000000000000000000000000000000 J
b00000000000000000000000000000000 K
b0 L
b000000000000 M
b0 N
b1 O
b00000000000000000000000000000000 P
b11111111111111111111111100110110 Q
b0000000010 R
b00000000000000000000000000000000 S
b0000000000 T
#5
b00000000000000000000000000000000 !
b0 "
b1 #
b00100000000000000000000000000000 $
b00000000000000000000000000000000 %
b1 &
b0 '
b00000000000000000000000000000000 (
b0 )
b1 *
b00100000000000000000000000000000 +
b0 ,
b0 -
b00000000000000000000000000000000 .
b0 /
b1 0
b00100000000000000000000000000000 1
b00000000000000000000000000000000 2
b0 3
b0 4
b00000000000000000000000000000000 5
b0 6
b1 7
b00100000000000000000000000000000 8
b00000000000000000000000000000000 9
b1 :
b0 ;
b00000000000000000000000000000000 <
b0 =
b00000000000000000000000000000000 >
b0 ?
b00000000000000000000000000000000 @
b00100000000000000000000000000000 A
b1 B
b11111111111111111111111100110110 C
b0 D
b00000000000000000000000000000000 E
b00000000000000000000000000000000 F
b0 G
b00000000000000000000000100100011 H
b0 I
b00000000000000000000000000000000 J
b00000000000000000000000000000000 K
b0 L
b000000000000 M
b0 N
b1 O
b00000000000000000000000000000000 P
b11111111111111111111111100110110 Q
b0000000011 R
b00000000000000000000000000000000 S
b0000000000 T
#6
b00000000000000000000000000000000 !
b0 "
b0 #
b00000000000000000000000000000000 $
b00000000000000000000000000000000 %
b1 &
b0 '
b00000000000000000000000000000000 (
b0 )
b0 *
b00000000000000000000000000000000 +
b0 ,
b0 -
b00000000000000000000000000000000 .
b0 /
b0 0
b00000000000000000000000000000000 1
b00000000000000000000000000000000 2
b0 3
b0 4
b00000000000000000000000000000000 5
b0 6
b0 7
b00100000000000000000000000000000 8
b00000000000000000000000000000000 9
b1 :
b0 ;
b00000000000000000000000000000000 <
b0 =
b00000000000000000000000000000000 >
b0 ?
b00000000000000000000000000000000 @
b00000000000000000000000000000000 A
b0 B
b11111111111111111111111100110110 C
b0 D
b00000000000000000000000000000000 E
b00000000000000000000000000000000 F
b0 G
b00000000000000000000000100100011 H
b0 I
b00000000000000000000000000000000 J
b00000000000000000000000000000000 K
b0 L
b000000000000 M
b0 N
b1 O
b00000000000000000000000000000000 P
b11111111111111111111111100110110 Q
b0000000100 R
b00000000000000000000000000000000 S
b0000000000 T
#7
b00000000000000000000000000000000 !
b0 "
b0 #
b00000000000000000000000000000000 $
b00000000000000000000000000000000 %
b0 &
b0 '
b00000000000000000000000000000000 (
b0 )
b0 *
b00000000000000000000000000000000 +
b0 ,
b0 -
b00000000000000000000000000000000 .
b0 /
b0 0
b00000000000000000000000000000000 1
b00000000000000000000000000000000 2
b0 3
b0 4
b00000000000000000000000000000000 5
b0 6
b0 7
b00100000000000000000000000111101 8
b00000000000000000000000000111101 9
b0 :
b0 ;
b00000000000000000000000000000000 <
b0 =
b00000000000000000000000000000000 >
b0 ?
b00000000000000000000000000000000 @
b00000000000000000000000000000000 A
b0 B
b11111111111111111111111100110110 C
b0 D
b00000000000000000000000000000000 E
b00000000000000000000000000000000 F
b0 G
b00000000000000000000000100100011 H
b0 I
b00000000000000000000000000000000 J
b00000000000000000000000000000000 K
b0 L
b000000000000 M
b0 N
b1 O
b00000000000000000000000000000000 P
b11111111111111111111111100110110 Q
b0000000101 R
b00000000000000000000000000000000 S
b0000000000 T
#8
b00000000000000000000000000000000 !
b0 "
b0 #
b00000000000000000000000000000000 $
b00000000000000000000000000000000 %
b0 &
b0 '
b00000000000000000000000000000000 (
b0 )
b0 *
b00000000000000000000000000000000 +
b0 ,
b0 -
b00000000000000000000000000000000 .
b0 /
b0 0
b00000000000000000000000000000000 1
b00000000000000000000000000000000 2
b0 3
b0 4
b00000000000000000000000000000000 5
b0 6
b0 7
b00100000000000000000000000000001 8
b00000000000000000000000000000001 9
b0 :
b0 ;
b00000000000000000000000000000000 <
b0 =
b00000000000000000000000000000000 >
b0 ?
b00000000000000000000000000000000 @
b00000000000000000000000000000000 A
b0 B
b11111111111111111111111100110110 C
b0 D
b00000000000000000000000000000000 E
b00000000000000000000000000000000 F
b0 G
b00000000000000000000000100100011 H
b0 I
b00000000000000000000000000000000 J
b00000000000000000000000000000000 K
b0 L
b000000000000 M
b0 N
b1 O
b00000000000000000000000000000000 P
b11111111111111111111111100110110 Q
b0000000110 R
b00000000000000000000000000000000 S
b0000000000 T
#9
b00000000000000000000000000000000 !
b0 "
b0 #
b00000000000000000000000000000000 $
b00000000000000000000000000000000 %
b0 &
b0 '
b00000000000000000000000000000000 (
b0 )
b0 *
b00000000000000000000000000000000 +
b0 ,
b0 -
b00000000000000000000000000000000 .
b0 /
b0 0
b00000000000000000000000000000000 1
b00000000000000000000000000000000 2
b0 3
b0 4
b00000000000000000000000000000000 5
b0 6
b0 7
b00100000000000000000000000111100 8
b00000000000000000000000000111100 9
b0 :
b0 ;
b00000000000000000000000000000000 <
b0 =
b00000000000000000000000000000000 >
b1 ?
b00000000000000000000000000000000 @
b00000000000000000000000000000000 A
b0 B
b11111111111111111111111100110110 C
b0 D
b00000000000000000000000000000000 E
b00000000000000000000000000000000 F
b0 G
b00000000000000000000000100100011 H
b0 I
b00000000000000000000000000000000 J
b00000000000000000000000000000000 K
b0 L
b000000000000 M
b0 N
b1 O
b00000000000000000000000000000000 P
b11111111111111111111111100110110 Q
b0000000111 R
b00000000000000000000000000000000 S
b0000000000 T
#10
b00000000000000000000000000000000 !
b0 "
b0 #
b00000000000000000000000000000000 $
b00000000000000000000000000000000 %
b0 &
b1 '
b00000000000000000000000000000000 (
b0 )
b0 *
b00000000000000000000000000000000 +
b0 ,
b0 -
b00000000000000000000000000000000 .
b0 /
b0 0
b00000000000000000000000000000000 1
b00000000000000000000000000000000 2
b0 3
b0 4
b00000000000000000000000000000000 5
b0 6
b0 7
b00100000000000000000000000111100 8
b00000000000000000000000000111100 9
b0 :
b1 ;
b00000000000000000000000000000000 <
b0 =
b00000000000000000000000000000000 >
b0 ?
b00000000000000000000000000000000 @
b00000000000000000000000000000000 A
b0 B
b11111111111111111111111100110110 C
b0 D
b00000000000000000000000000000000 E
b00000000000000000000000000000000 F
b0 G
b00000000000000000000000100100011 H
b0 I
b00000000000000000000000000000000 J
b00000000000000000000000000000000 K
b0 L
b000000000000 M
b0 N
b1 O
b00000000000000000000000000000000 P
b11111111111111111111111100110110 Q
b0000001000 R
b00000000000000000000000000000000 S
b0000000000 T
#11
b00000000000000000000000000000000 !
b1 "
b0 #
b00000000000000000000000000000000 $
b00000000000000000000000000000000 %
b0 &
b1 '
b00000000000000000000000000000000 (
b1 )
b0 *
b00000000000000000000000000000000 +
b0 ,
b0 -
b00000000000000000000000000000000 .
b1 /
b0 0
b00000000000000000000000000000000 1
b00000000000000000000000000000000 2
b0 3
b0 4
b00000000000000000000000000000000 5
b1 6
b0 7
b00000000000000000000000000000000 8
b00000000000000000000000000000000 9
b0 :
b1 ;
b00000000000000000000000000000000 <
b1 =
b00000000000000000000000000000000 >
b0 ?
b00000000000000000000000000000000 @
b00000000000000000000000000000000 A
b0 B
b11111111111111111111111100110110 C
b0 D
b00000000000000000000000000000000 E
b00000000000000000000000000000000 F
b0 G
b00000000000000000000000100100011 H
b0 I
b00000000000000000000000000000000 J
b00000000000000000000000000000000 K
b0 L
b000000000000 M
b0 N
b1 O
b00000000000000000000000000000000 P
b11111111111111111111111100110110 Q
b0000001001 R
b00000000000000000000000000000000 S
b0000000000 T
#12
b00000000000000000000000000000000 !
b0 "
b0 #
b00000000000000000000000000000000 $
b00000000000000000000000000000000 %
b0 &
b0 '
b00000000000000000000000000000000 (
b0 )
b0 *
b00000000000000000000000000000000 +
b0 ,
b0 -
b00000000000000000000000000000000 .
b0 /
b0 0
b00000000000000000000000000000000 1
b00000000000000000000000000000000 2
b0 3
b0 4
b00000000000000000000000000000000 5
b0 6
b0 7
b00000000000000000000000000000000 8
b00000000000000000000000000000000 9
b0 :
b0 ;
b00000000000000000000000000000000 <
b0 =
b00000000000000000000000000000000 >
b0 ?
b00000000000000000000000000000000 @
b00000000000000000000000000000000 A
b0 B
b11111111111111111111111100111001 C
b0 D
b00000000000000000000000000000000 E
b00000000000000000000000000000000 F
b0 G
b00000000000000000000000100100011 H
b0 I
b00000000000000000000000000000000 J
b00000000000000000000000000000000 K
b0 L
b000000000000 M
b0 N
b1 O
b00000000000000000000000000000000 P
b11111111111111111111111100111001 Q
b0000000000 R
b00000000000000000000000000000000 S
b0000000000 T
#13
b00000000000000000000000000000000 !
b0 "
b0 #
b00000000000000000000000000000000 $
b00000000000000000000000000000000 %
b0 &
b0 '
b00000000000000000000000000000000 (
b0 )
b0 *
b00000000000000000000000000000000 +
b0 ,
b0 -
b00000000000000000000000000000000 .
b0 /
b0 0
b00000000000000000000000000000000 1
b00000000000000000000000000000000 2
b0 3
b0 4
b00000000000000000000000000000000 5
b0 6
b0 7
b00100000000000000000000000000000 8
b00000000000000000000000000000000 9
b0 :
b0 ;
b00000000000000000000000000000000 <
b0 =
b00000000000000000000000000000000 >
b0 ?
b00000000000000000000000000000000 @
b00000000000000000000000000000000 A
b0 B
b11111111111111111111111100111001 C
b0 D
b00000000000000000000000000000000 E
b00000000000000000000000000000000 F
b0 G
b00000000000000000000000100100011 H
b0 I
b00000000000000000000000000000000 J
b00000000000000000000000000000000 K
b0 L
b000000000000 M
b0 N
b1 O
b00000000000000000000000000000000 P
b11111111111111111111111100111001 Q
b0000000001 R
b00000000000000000000000000000000 S
b0000000000 T
#14
b00000000000000000000000000000000 !
b0 "
b0 #
b00000000000000000000000000000000 $
b00000000000000000000000000000000 %
b0 &
b0 '
b00000000000000000000000000000000 (
b0 )
b0 *
b00000000000000000000000000000000 +
b0 ,
b0 -
b00000000000000000000000000000000 .
b0 /
b0 0
b00000000000000000000000000000000 1
b00000000000000000000000000000000 2
b0 3
b0 4
b00000000000000000000000000000000 5
b0 6
b0 7
b00100000000000000000000000111101 8
b00000000000000000000000000111101 9
b0 :
b0 ;
b00000000000000000000000000000000 <
b0 =
b00000000000000000000000000000000 >
b0 ?
b00000000000000000000000000000000 @
b00000000000000000000000000000000 A
b0 B
b11111111111111111111111100111001 C
b0 D
b00000000000000000000000000000000 E
b00000000000000000000000000000000 F
b0 G
b00000000000000000000000100100011 H
b0 I
b00000000000000000000000000000000 J
b00000000000000000000000000000000 K
b0 L
b000000000000 M
b0 N
b1 O
b00000000000000000000000000000000 P
b11111111111111111111111100111001 Q
b0000000010 R
b00000000000000000000000000000000 S
b0000000000 T
#15
b00000000000000000000000000000000 !
b0 "
b0 #
b00000000000000000000000000000000 $
b00000000000000000000000000000000 %
b0 &
b0 '
b00000000000000000000000000000000 (
b0 )
b0 *
b00000000000000000000000000000000 +
b0 ,
b0 -
b00000000000000000000000000000000 .
b0 /
b0 0
b00000000000000000000000000000000 1
b00000000000000000000000000000000 2
b0 3
b0 4
b00000000000000000000000000000000 5
b0 6
b0 7
b00100000000000000000000000111101 8
b00000000000000000000000000111101 9
b0 :
b0 ;
b00000000000000000000000000000000 <
b0 =
b00000000000000000000000000000000 >
b0 ?
b00000000000000000000000000000000 @
b00000000000000000000000000000000 A
b0 B
b11111111111111111111111100111001 C
b0 D
b00000000000000000000000000000000 E
b00000000000000000000000000000000 F
b0 G
b00000000000000000000000100100011 H
b0 I
b00000000000000000000000000000000 J
b00000000000000000000000000000000 K
b0 L
b000000000000 M
b0 N
b1 O
b00000000000000000000000000000000 P
b11111111111111111111111100111001 Q
b0000000011 R
b00000000000000000000000000000000 S
b0000000000 T
#16
b00000000000000000000000000000000 !
b0 "
b0 #
b00000000000000000000000000000000 $
b00000000000000000000000000000000 %
b0 &
b0 '
b00000000000000000000000000000000 (
b0 )
b0 *
b00000000000000000000000000000000 +
b0 ,
b0 -
b00000000000000000000000000000000 .
b0 /
b0 0
b00000000000000000000000000000000 1
b00000000000000000000000000000000 2
b0 3
b0 4
b00000000000000000000000000000000 5
b0 6
b0 7
b00100000000000000000000000000000 8
b00000000000000000000000000000000 9
b0 :
b0 ;
b00000000000000000000000000000000 <
b0 =
b00000000000000000000000000000000 >
b0 ?
b00000000000000000000000000000000 @
b00000000000000000000000000000000 A
b0 B
b11111111111111111111111100111001 C
b0 D
b00000000000000000000000000000000 E
b00000000000000000000000000000000 F
b0 G
b00000000000000000000000100100011 H
b0 I
b00000000000000000000000000000000 J
b00000000000000000000000000000000 K
b0 L
b000000000000 M
b0 N
b1 O
b00000000000000000000000000000000 P
b11111111111111111111111100111001 Q
b0000000100 R
b00000000000000000000000000000000 S
b0000000000 T
#17
b00000000000000000000000000000000 !
b0 "
b0 #
b00000000000000000000000000000000 $
b00000000000000000000000000000000 %
b0 &
b0 '
b00000000000000000000000000000000 (
b0 )
b0 *
b00000000000000000000000000000000 +
b0 ,
b0 -
b00000000000000000000000000000000 .
b0 /
b0 0
b00000000000000000000000000000000 1
b00000000000000000000000000000000 2
b0 3
b0 4
b00000000000000000000000000000000 5
b0 6
b0 7
b00100000000000000000000000000000 8
b00000000000000000000000000000000 9
b0 :
b0 ;
b00000000000000000000000000000000 <
b0 =
b00000000000000000000000000000000 >
b0 ?
b00000000000000000000000000000000 @
b00000000000000000000000000000000 A
b0 B
b11111111111111111111111100111001 C
b0 D
b00000000000000000000000000000000 E
b00000000000000000000000000000000 F
b0 G
b00000000000000000000000100100011 H
b0 I
b00000000000000000000000000000000 J
b00000000000000000000000000000000 K
b0 L
b000000000000 M
b0 N
b1 O
b00000000000000000000000000000000 P
b11111111111111111111111100111001 Q
b0000000101 R
b00000000000000000000000000000000 S
b0000000000 T
#18
b00000000000000000000000000000000 !
b0 "
b0 #
b00000000000000000000000000000000 $
b00000000000000000000000000000000 %
b0 &
b0 '
b00000000000000000000000000000000 (
b0 )
b0 *
b00000000000000000000000000000000 +
b0 ,
b0 -
b00000000000000000000000000000000 .
b0 /
b0 0
b00000000000000000000000000000000 1
b00000000000000000000000000000000 2
b0 3
b0 4
b00000000000000000000000000000000 5
b0 6
b0 7
b00100000000000000000000000000000 8
b00000000000000000000000000000000 9
b0 :
b0 ;
b00000000000000000000000000000000 <
b0 =
b00000000000000000000000000000000 >
b0 ?
b00000000000000000000000000000000 @
b00000000000000000000000000000000 A
b0 B
b11111111111111111111111100111001 C
b0 D
b00000000000000000000000000000000 E
b00000000000000000000000000000000 F
b0 G
b00000000000000000000000100100011 H
b0 I
b00000000000000000000000000000000 J
b00000000000000000000000000000000 K
b0 L
b000000000000 M
b0 N
b1 O
b00000000000000000000000000000000 P
b11111111111111111111111100111001 Q
b0000000110 R
b00000000000000000000000000000000 S
b0000000000 T
#19
b00000000000000000000000000000000 !
b0 "
b0 #
b00000000000000000000000000000000 $
b00000000000000000000000000000000 %
b0 &
b0 '
b00000000000000000000000000000000 (
b0 )
b0 *
b00000000000000000000000000000000 +
b0 ,
b0 -
b00000000000000000000000000000000 .
b0 /
b0 0
b00000000000000000000000000000000 1
b00000000000000000000000000000000 2
b0 3
b0 4
b00000000000000000000000000000000 5
b0 6
b0 7
b00100000000000000000000000000010 8
b00000000000000000000000000000010 9
b0 :
b0 ;
b00000000000000000000000000000000 <
b0 =
b00000000000000000000000000000000 >
b0 ?
b00000000000000000000000000000000 @
b00000000000000000000000000000000 A
b0 B
b11111111111111111111111100111001 C
b0 D
b00000000000000000000000000000000 E
b00000000000000000000000000000000 F
b0 G
b00000000000000000000000100100011 H
b0 I
b00000000000000000000000000000000 J
b00000000000000000000000000000000 K
b0 L
b000000000000 M
b0 N
b1 O
b00000000000000000000000000000000 P
b11111111111111111111111100111001 Q
b0000000111 R
b00000000000000000000000000000000 S
b0000000000 T
#20
b00000000000000000000000000000000 !
b0 "
b0 #
b00000000000000000000000000000000 $
b00000000000000000000000000000000 %
b0 &
b0 '
b00000000000000000000000000000000 (
b0 )
b0 *
b00000000000000000000000000000000 +
b0 ,
b0 -
b00000000000000000000000000000000 .
b0 /
b0 0
b00000000000000000000000000000000 1
b00000000000000000000000000000000 2
b0 3
b0 4
b00000000000000000000000000000000 5
b0 6
b0 7
b00100000000000000000000000111011 8
b00000000000000000000000000111011 9
b0 :
b0 ;
b00000000000000000000000000000000 <
b0 =
b00000000000000000000000000000000 >
b0 ?
b00000000000000000000000000000000 @
b00000000000000000000000000000000 A
b0 B
b11111111111111111111111100111001 C
b0 D
b00000000000000000000000000000000 E
b00000000000000000000000000000000 F
b0 G
b00000000000000000000000100100011 H
b0 I
b00000000000000000000000000000000 J
b00000000000000000000000000000000 K
b0 L
b000000000000 M
b0 N
b1 O
b00000000000000000000000000000000 P
b11111111111111111111111100111001 Q
b0000001000 R
b00000000000000000000000000000000 S
b0000000000 T
#21
b00000000000000000000000000000000 !
b0 "
b0 #
b00000000000000000000000000000000 $
b00000000000000000000000000000000 %
b0 &
b0 '
b00000000000000000000000000000000 (
b0 )
b0 *
b00000000000000000000000000000000 +
b0 ,
b0 -
b00000000000000000000000000000000 .
b0 /
b0 0
b00000000000000000000000000000000 1
b00000000000000000000000000000000 2
b0 3
b0 4
b00000000000000000000000000000000 5
b0 6
b0 7
b00100000000000000000000000111011 8
b00000000000000000000000000111011 9
b0 :
b0 ;
b00000000000000000000000000000000 <
b0 =
b00000000000000000000000000000000 >
b0 ?
b00000000000000000000000000000000 @
b00000000000000000000000000000000 A
b0 B
b11111111111111111111111100111001 C
b0 D
b00000000000000000000000000000000 E
b00000000000000000000000000000000 F
b0 G
b00000000000000000000000100100011 H
b0 I
b00000000000000000000000000000000 J
b00000000000000000000000000000000 K
b0 L
b000000000000 M
b0 N
b1 O
b00000000000000000000000000000000 P
b11111111111111111111111100111001 Q
b0000001001 R
b00000000000000000000000000000000 S
b0000000000 T
#22
b00000000000000000000000000000000 !
b0 "
b0 #
b00000000000000000000000000000000 $
b00000000000000000000000000000000 %
b0 &
b0 '
b00000000000000000000000000000000 (
b0 )
b0 *
b00000000000000000000000000000000 +
b0 ,
b0 -
b00000000000000000000000000000000 .
b0 /
b0 0
b00000000000000000000000000000000 1
b00000000000000000000000000000000 2
b0 3
b0 4
b00000000000000000000000000000000 5
b0 6
b0 7
b00100000000000000000000000000000 8
b00000000000000000000000000000000 9
b0 :
b0 ;
b00000000000000000000000000000000 <
b0 =
b00000000000000000000000000000000 >
b0 ?
b00000000000000000000000000000000 @
b00000000000000000000000000000000 A
b0 B
b11111111111111111111111100111000 C
b0 D
b00000000000000000000000000000000 E
b00000000000000000000000000000000 F
b0 G
b00000000000000000000000100100011 H
b0 I
b00000000000000000000000000000000 J
b00000000000000000000000000000000 K
b0 L
b000000000000 M
b0 N
b1 O
b00000000000000000000000000000000 P
b11111111111111111111111100111000 Q
b0000000000 R
b00000000000000000000000000000000 S
b0000000000 T
#23
b00000000000000000000000000000000 !
b0 "
b0 #
b00000000000000000000000000000000 $
b00000000000000000000000000000000 %
b0 &
b0 '
b00000000000000000000000000000000 (
b0 )
b0 *
b00000000000000000000000000000000 +
b0 ,
b0 -
b00000000000000000000000000000000 .
b0 /
b0 0
b00000000000000000000000000000000 1
b00000000000000000000000000000000 2
b0 3
b0 4
b00000000000000000000000000000000 5
b0 6
b0 7
b11111111111111111111111111111110 8
b11111111111111111111111111111110 9
b0 :
b0 ;
b00000000000000000000000000000000 <
b0 =
b00000000000000000000000000000000 >
b0 ?
b00000000000000000000000000000000 @
b00000000000000000000000000000000 A
b0 B
b11111111111111111111111100111000 C
b0 D
b00000000000000000000000000000000 E
b00000000000000000000000000000000 F
b0 G
b00000000000000000000000100100011 H
b0 I
b00000000000000000000000000000000 J
b00000000000000000000000000000000 K
b0 L
b000000000000 M
b0 N
b1 O
b00000000000000000000000000000000 P
b11111111111111111111111100111000 Q
b0000000001 R
b00000000000000000000000000000000 S
b0000000000 T
#24
b00000000000000000000000000000000 !
b0 "
b1 #
b00100000000000000000000000111101 $
b00000000000000000000000000111101 %
b0 &
b0 '
b00000000000000000000000000000000 (
b0 )
b1 *
b00100000000000000000000000111101 +
b0 ,
b0 -
b00000000000000000000000000000000 .
b0 /
b1 0
b00100000000000000000000000111101 1
b00000000000000000000000000111101 2
b0 3
b0 4
b00000000000000000000000000000000 5
b0 6
b1 7
b00100000000000000000000000111101 8
b00000000000000000000000000111101 9
b0 :
b0 ;
b00000000000000000000000000000000 <
b0 =
b00000000000000000000000000000000 >
b0 ?
b00000000000000000000000000000000 @
b00000000000000000000000000000000 A
b0 B
b11111111111111111111111100111000 C
b0 D
b00000000000000000000000000000000 E
b00000000000000000000000000000000 F
b0 G
b00000000000000000000000100100011 H
b0 I
b00000000000000000000000000000000 J
b00000000000000000000000000000000 K
b0 L
b000000000000 M
b0 N
b1 O
b00000000000000000000000000000000 P
b11111111111111111111111100111000 Q
b0000000010 R
b00000000000000000000000000000000 S
b0000000000 T
#25
b00000000000000000000000000000000 !
b0 "
b1 #
b00100000000000000000000000111101 $
b00000000000000000000000000111101 %
b1 &
b0 '
b00000000000000000000000000000000 (
b0 )
b1 *
b00100000000000000000000000111101 +
b0 ,
b0 -
b00000000000000000000000000000000 .
b0 /
b1 0
b00100000000000000000000000111101 1
b00000000000000000000000000111101 2
b0 3
b0 4
b00000000000000000000000000000000 5
b0 6
b1 7
b00100000000000000000000000111101 8
b00000000000000000000000000111101 9
b1 :
b0 ;
b00000000000000000000000000000000 <
b0 =
b00000000000000000000000000000000 >
b0 ?
b00000000000000000000000000111101 @
b00100000000000000000000000111101 A
b1 B
b11111111111111111111111100111000 C
b0 D
b00000000000000000000000000000000 E
b00000000000000000000000000000000 F
b0 G
b00000000000000000000000100100011 H
b0 I
b00000000000000000000000000000000 J
b00000000000000000000000000000000 K
b0 L
b000000000000 M
b0 N
b1 O
b00000000000000000000000000000000 P
b11111111111111111111111100111000 Q
b0000000011 R
b00000000000000000000000000000000 S
b0000000000 T
#26
b00000000000000000000000000000000 !
b0 "
b0 #
b00000000000000000000000000000000 $
b00000000000000000000000000000000 %
b1 &
b0 '
b00000000000000000000000000000000 (
b0 )
b0 *
b00000000000000000000000000000000 +
b0 ,
b0 -
b00000000000000000000000000000000 .
b0 /
b0 0
b00000000000000000000000000000000 1
b00000000000000000000000000000000 2
b0 3
b0 4
b00000000000000000000000000000000 5
b0 6
b0 7
b00100000000000000000000000111101 8
b00000000000000000000000000111101 9
b1 :
b0 ;
b00000000000000000000000000000000 <
b0 =
b00000000000000000000000000000000 >
b0 ?
b00000000000000000000000000000000 @
b00000000000000000000000000000000 A
b0 B
b11111111111111111111111100111000 C
b0 D
b00000000000000000000000000000000 E
b00000000000000000000000000000000 F
b0 G
b00000000000000000000000100100011 H
b0 I
b00000000000000000000000000000000 J
b00000000000000000000000000000000 K
b0 L
b000000111101 M
b0 N
b1 O
b00000000000000000000000000000000 P
b11111111111111111111111100111000 Q
b0000000100 R
b00000000000000000000000000000000 S
b0000000000 T
